vivado/.Xil/Vivado-4372-DESKTOP-CDN1SDU/hw_ila_data_1/zip_work/waveform.vcd
$date
        2019-Dec-30 11:16:39
$end
$version
        Vivado v2018.2 (64-bit)
$end
$timescale
        1ps
$end
$scope module dut $end
$var reg 16 " zusys_i/system_ila_0/inst/probe0_1 [15:0] $end
$var reg 1 2 zusys_i/system_ila_0/inst/probe1_1 $end
$var reg 1 3 zusys_i/system_ila_0/inst/probe2_1 $end
$var reg 1 4 zusys_i/system_ila_0/inst/probe3_1 $end
$var reg 1 5 zusys_i/system_ila_0/inst/probe4_1 $end
$var reg 1 6 zusys_i/system_ila_0/inst/probe5_1 $end
$var reg 1 7 zusys_i/system_ila_0/inst/probe6_1 $end
$var reg 1 8 zusys_i/system_ila_0/inst/probe7_1 $end
$var reg 1 9 zusys_i/system_ila_0/inst/probe8_1 $end
$var reg 16 : zusys_i/system_ila_0/inst/probe9_1 [15:0] $end
$var reg 1 J zusys_i/system_ila_0/inst/probe10_1 $end
$var reg 1 K zusys_i/system_ila_0/inst/probe11_1 $end
$var reg 1 L zusys_i/system_ila_0/inst/probe12_1 $end
$var reg 1 M zusys_i/system_ila_0/inst/probe13_1 $end
$var reg 1 N _TRIGGER $end
$var reg 1 O _WINDOW $end
$var reg 1 P _GAP $end
$upscope $end
$enddefinitions $end
#0
$dumpvars
b1000 "
02
13
14
15
06
17
08
09
b11100 :
1J
1K
1L
0M
0N
1O
0P
$end
#1
b1001 "
b100000 :
#2
b1010 "
b100100 :
#3
b1011 "
b101000 :
#4
b1100 "
b101100 :
#5
b1101 "
b110000 :
#6
b1110 "
b0 :
#7
b1111 "
b100 :
#8
b10000 "
b1000 :
#9
b0 "
b1100 :
#10
b1 "
b10000 :
#11
b10 "
b10100 :
#12
b11 "
b11000 :
#13
b100 "
b11100 :
#14
b101 "
b100000 :
#15
b110 "
b100100 :
#16
b111 "
b101000 :
#17
b1000 "
b101100 :
#18
b1001 "
b110000 :
#19
b1010 "
b0 :
#20
b1011 "
b100 :
#21
b1100 "
b1000 :
#22
b1101 "
b1100 :
#23
b1110 "
b10000 :
#24
b1111 "
b10100 :
#25
b10000 "
b11000 :
#26
b0 "
b11100 :
#27
b1 "
b100000 :
#28
b10 "
b100100 :
#29
b11 "
b101000 :
#30
b100 "
b101100 :
#31
b101 "
b110000 :
#32
b110 "
b0 :
#33
b111 "
b100 :
#34
b1000 "
b1000 :
#35
b1001 "
b1100 :
#36
b1010 "
b10000 :
#37
b1011 "
b10100 :
#38
b1100 "
b11000 :
#39
b1101 "
b11100 :
#40
b1110 "
b100000 :
#41
b1111 "
b100100 :
#42
b10000 "
b101000 :
#43
b0 "
b101100 :
#44
b1 "
b110000 :
#45
b10 "
b0 :
#46
b11 "
b100 :
#47
b100 "
b1000 :
#48
b101 "
b1100 :
#49
b110 "
b10000 :
#50
b111 "
b10100 :
#51
b1000 "
b11000 :
#52
b1001 "
b11100 :
#53
b1010 "
b100000 :
#54
b1011 "
b100100 :
#55
b1100 "
b101000 :
#56
b1101 "
b101100 :
#57
b1110 "
b110000 :
#58
b1111 "
b0 :
#59
b10000 "
b100 :
#60
b0 "
b1000 :
#61
b1 "
b1100 :
#62
b10 "
b10000 :
#63
b11 "
b10100 :
#64
b100 "
b11000 :
#65
b101 "
b11100 :
#66
b110 "
b100000 :
#67
b111 "
b100100 :
#68
b1000 "
b101000 :
#69
b1001 "
b101100 :
#70
b1010 "
b110000 :
#71
b1011 "
b0 :
#72
b1100 "
b100 :
#73
b1101 "
b1000 :
#74
b1110 "
b1100 :
#75
b1111 "
b10000 :
#76
b10000 "
b10100 :
#77
b0 "
b11000 :
#78
b1 "
b11100 :
#79
b10 "
b100000 :
#80
b11 "
b100100 :
#81
b100 "
b101000 :
#82
b101 "
b101100 :
#83
b110 "
b110000 :
#84
b111 "
b0 :
#85
b1000 "
b100 :
#86
b1001 "
b1000 :
#87
b1010 "
b1100 :
#88
b1011 "
b10000 :
#89
b1100 "
b10100 :
#90
b1101 "
b11000 :
#91
b1110 "
b11100 :
#92
b1111 "
b100000 :
#93
b10000 "
b100100 :
#94
b0 "
b101000 :
#95
b1 "
b101100 :
#96
b10 "
b110000 :
#97
b11 "
b0 :
#98
b100 "
b100 :
#99
b101 "
b1000 :
#100
b110 "
b1100 :
#101
b111 "
b10000 :
#102
b1000 "
b10100 :
#103
b1001 "
b11000 :
#104
b1010 "
b11100 :
#105
b1011 "
b100000 :
#106
b1100 "
b100100 :
#107
b1101 "
b101000 :
#108
b1110 "
b101100 :
#109
b1111 "
b110000 :
#110
b10000 "
b0 :
#111
b0 "
b100 :
#112
b1 "
b1000 :
#113
b10 "
b1100 :
#114
b11 "
b10000 :
#115
b100 "
b10100 :
#116
b101 "
b11000 :
#117
b110 "
b11100 :
#118
b111 "
b100000 :
#119
b1000 "
b100100 :
#120
b1001 "
b101000 :
#121
b1010 "
b101100 :
#122
b1011 "
b110000 :
#123
b1100 "
b0 :
#124
b1101 "
b100 :
#125
b1110 "
b1000 :
#126
b1111 "
b1100 :
#127
b10000 "
b10000 :
#128
b0 "
b10100 :
#129
b1 "
b11000 :
#130
b10 "
b11100 :
#131
b11 "
b100000 :
#132
b100 "
b100100 :
#133
b101 "
b101000 :
#134
b110 "
b101100 :
#135
b111 "
b110000 :
#136
b1000 "
b0 :
#137
b1001 "
b100 :
#138
b1010 "
b1000 :
#139
b1011 "
b1100 :
#140
b1100 "
b10000 :
#141
b1101 "
b10100 :
#142
b1110 "
b11000 :
#143
b1111 "
b11100 :
#144
b10000 "
b100000 :
#145
b0 "
b100100 :
#146
b1 "
b101000 :
#147
b10 "
b101100 :
#148
b11 "
b110000 :
#149
b100 "
b0 :
#150
b101 "
b100 :
#151
b110 "
b1000 :
#152
b111 "
b1100 :
#153
b1000 "
b10000 :
#154
b1001 "
b10100 :
#155
b1010 "
b11000 :
#156
b1011 "
b11100 :
#157
b1100 "
b100000 :
#158
b1101 "
b100100 :
#159
b1110 "
b101000 :
#160
b1111 "
b101100 :
#161
b10000 "
b110000 :
#162
b0 "
b0 :
#163
b1 "
b100 :
#164
b10 "
b1000 :
#165
b11 "
b1100 :
#166
b100 "
b10000 :
#167
b101 "
b10100 :
#168
b110 "
b11000 :
#169
b111 "
b11100 :
#170
b1000 "
b100000 :
#171
b1001 "
b100100 :
#172
b1010 "
b101000 :
#173
b1011 "
b101100 :
#174
b1100 "
b110000 :
#175
b1101 "
b0 :
#176
b1110 "
b100 :
#177
b1111 "
b1000 :
#178
b10000 "
b1100 :
#179
b0 "
b10000 :
#180
b1 "
b10100 :
#181
b10 "
b11000 :
#182
b11 "
b11100 :
#183
b100 "
b100000 :
#184
b101 "
b100100 :
#185
b110 "
b101000 :
#186
b111 "
b101100 :
#187
b1000 "
b110000 :
#188
b1001 "
b0 :
#189
b1010 "
b100 :
#190
b1011 "
b1000 :
#191
b1100 "
b1100 :
#192
b1101 "
b10000 :
#193
b1110 "
b10100 :
#194
b1111 "
b11000 :
#195
b10000 "
b11100 :
#196
b0 "
b100000 :
#197
b1 "
b100100 :
#198
b10 "
b101000 :
#199
b11 "
b101100 :
#200
b100 "
b110000 :
#201
b101 "
b0 :
#202
b110 "
b100 :
#203
b111 "
b1000 :
#204
b1000 "
b1100 :
#205
b1001 "
b10000 :
#206
b1010 "
b10100 :
#207
b1011 "
b11000 :
#208
b1100 "
b11100 :
#209
b1101 "
b100000 :
#210
b1110 "
b100100 :
#211
b1111 "
b101000 :
#212
b10000 "
b101100 :
#213
b0 "
b110000 :
#214
b1 "
b0 :
#215
b10 "
b100 :
#216
b11 "
b1000 :
#217
b100 "
b1100 :
#218
b101 "
b10000 :
#219
b110 "
b10100 :
#220
b111 "
b11000 :
#221
b1000 "
b11100 :
#222
b1001 "
b100000 :
#223
b1010 "
b100100 :
#224
b1011 "
b101000 :
#225
b1100 "
b101100 :
#226
b1101 "
b110000 :
#227
b1110 "
b0 :
#228
b1111 "
b100 :
#229
b10000 "
b1000 :
#230
b0 "
b1100 :
#231
b1 "
b10000 :
#232
b10 "
b10100 :
#233
b11 "
b11000 :
#234
b100 "
b11100 :
#235
b101 "
b100000 :
#236
b110 "
b100100 :
#237
b111 "
b101000 :
#238
b1000 "
b101100 :
#239
b1001 "
b110000 :
#240
b1010 "
b0 :
#241
b1011 "
b100 :
#242
b1100 "
b1000 :
#243
b1101 "
b1100 :
#244
b1110 "
b10000 :
#245
b1111 "
b10100 :
#246
b10000 "
b11000 :
#247
b0 "
b11100 :
#248
b1 "
b100000 :
#249
b10 "
b100100 :
#250
b11 "
b101000 :
#251
b100 "
b101100 :
#252
b101 "
b110000 :
#253
b110 "
b0 :
#254
b111 "
b100 :
#255
b1000 "
b1000 :
#256
b1001 "
b1100 :
#257
b1010 "
b10000 :
#258
b1011 "
b10100 :
#259
b1100 "
b11000 :
#260
b1101 "
b11100 :
#261
b1110 "
b100000 :
#262
b1111 "
b100100 :
#263
b10000 "
b101000 :
#264
b0 "
b101100 :
#265
b1 "
b110000 :
#266
b10 "
b0 :
#267
b11 "
b100 :
#268
b100 "
b1000 :
#269
b101 "
b1100 :
#270
b110 "
b10000 :
#271
b111 "
b10100 :
#272
b1000 "
b11000 :
#273
b1001 "
b11100 :
#274
b1010 "
b100000 :
#275
b1011 "
b100100 :
#276
b1100 "
b101000 :
#277
b1101 "
b101100 :
#278
b1110 "
b110000 :
#279
b1111 "
b0 :
#280
b10000 "
b100 :
#281
b0 "
b1000 :
#282
b1 "
b1100 :
#283
b10 "
b10000 :
#284
b11 "
b10100 :
#285
b100 "
b11000 :
#286
b101 "
b11100 :
#287
b110 "
b100000 :
#288
b111 "
b100100 :
#289
b1000 "
b101000 :
#290
b1001 "
b101100 :
#291
b1010 "
b110000 :
#292
b1011 "
b0 :
#293
b1100 "
b100 :
#294
b1101 "
b1000 :
#295
b1110 "
b1100 :
#296
b1111 "
b10000 :
#297
b10000 "
b10100 :
#298
b0 "
b11000 :
#299
b1 "
b11100 :
#300
b10 "
b100000 :
#301
b11 "
b100100 :
#302
b100 "
b101000 :
#303
b101 "
b101100 :
#304
b110 "
b110000 :
#305
b111 "
b0 :
#306
b1000 "
b100 :
#307
b1001 "
b1000 :
#308
b1010 "
b1100 :
#309
b1011 "
b10000 :
#310
b1100 "
b10100 :
#311
b1101 "
b11000 :
#312
b1110 "
b11100 :
#313
b1111 "
b100000 :
#314
b10000 "
b100100 :
#315
b0 "
b101000 :
#316
b1 "
b101100 :
#317
b10 "
b110000 :
#318
b11 "
b0 :
#319
b100 "
b100 :
#320
b101 "
b1000 :
#321
b110 "
b1100 :
#322
b111 "
b10000 :
#323
b1000 "
b10100 :
#324
b1001 "
b11000 :
#325
b1010 "
b11100 :
#326
b1011 "
b100000 :
#327
b1100 "
b100100 :
#328
b1101 "
b101000 :
#329
b1110 "
b101100 :
#330
b1111 "
b110000 :
#331
b10000 "
b0 :
#332
b0 "
b100 :
#333
b1 "
b1000 :
#334
b10 "
b1100 :
#335
b11 "
b10000 :
#336
b100 "
b10100 :
#337
b101 "
b11000 :
#338
b110 "
b11100 :
#339
b111 "
b100000 :
#340
b1000 "
b100100 :
#341
b1001 "
b101000 :
#342
b1010 "
b101100 :
#343
b1011 "
b110000 :
#344
b1100 "
b0 :
#345
b1101 "
b100 :
#346
b1110 "
b1000 :
#347
b1111 "
b1100 :
#348
b10000 "
b10000 :
#349
b0 "
b10100 :
#350
b1 "
b11000 :
#351
b10 "
b11100 :
#352
b11 "
b100000 :
#353
b100 "
b100100 :
#354
b101 "
b101000 :
#355
b110 "
b101100 :
#356
b111 "
b110000 :
#357
b1000 "
b0 :
#358
b1001 "
b100 :
#359
b1010 "
b1000 :
#360
b1011 "
b1100 :
#361
b1100 "
b10000 :
#362
b1101 "
b10100 :
#363
b1110 "
b11000 :
#364
b1111 "
b11100 :
#365
b10000 "
b100000 :
#366
b0 "
b100100 :
#367
b1 "
b101000 :
#368
b10 "
b101100 :
#369
b11 "
b110000 :
#370
b100 "
b0 :
#371
b101 "
b100 :
#372
b110 "
b1000 :
#373
b111 "
b1100 :
#374
b1000 "
b10000 :
#375
b1001 "
b10100 :
#376
b1010 "
b11000 :
#377
b1011 "
b11100 :
#378
b1100 "
b100000 :
#379
b1101 "
b100100 :
#380
b1110 "
b101000 :
#381
b1111 "
b101100 :
#382
b10000 "
b110000 :
#383
b0 "
b0 :
#384
b1 "
b100 :
#385
b10 "
b1000 :
#386
b11 "
b1100 :
#387
b100 "
b10000 :
#388
b101 "
b10100 :
#389
b110 "
b11000 :
#390
b111 "
b11100 :
#391
b1000 "
b100000 :
#392
b1001 "
b100100 :
#393
b1010 "
b101000 :
#394
b1011 "
b101100 :
#395
b1100 "
b110000 :
#396
b1101 "
b0 :
#397
b1110 "
b100 :
#398
b1111 "
b1000 :
#399
b10000 "
b1100 :
#400
b0 "
b10000 :
#401
b1 "
b10100 :
#402
b10 "
b11000 :
#403
b11 "
b11100 :
#404
b100 "
b100000 :
#405
b101 "
b100100 :
#406
b110 "
b101000 :
#407
b111 "
b101100 :
#408
b1000 "
b110000 :
#409
b1001 "
b0 :
#410
b1010 "
b100 :
#411
b1011 "
b1000 :
#412
b1100 "
b1100 :
#413
b1101 "
b10000 :
#414
b1110 "
b10100 :
#415
b1111 "
b11000 :
#416
b10000 "
b11100 :
#417
b0 "
b100000 :
#418
b1 "
b100100 :
#419
b10 "
b101000 :
#420
b11 "
b101100 :
#421
b100 "
b110000 :
#422
b101 "
b0 :
#423
b110 "
b100 :
#424
b111 "
b1000 :
#425
b1000 "
b1100 :
#426
b1001 "
b10000 :
#427
b1010 "
b10100 :
#428
b1011 "
b11000 :
#429
b1100 "
b11100 :
#430
b1101 "
b100000 :
#431
b1110 "
b100100 :
#432
b1111 "
b101000 :
#433
b10000 "
b101100 :
#434
b0 "
b110000 :
#435
b1 "
b0 :
#436
b10 "
b100 :
#437
b11 "
b1000 :
#438
b100 "
b1100 :
#439
b101 "
b10000 :
#440
b110 "
b10100 :
#441
b111 "
b11000 :
#442
b1000 "
b11100 :
#443
b1001 "
b100000 :
#444
b1010 "
b100100 :
#445
b1011 "
b101000 :
#446
b1100 "
b101100 :
#447
b1101 "
b110000 :
#448
b1110 "
b0 :
#449
b1111 "
b100 :
#450
b10000 "
b1000 :
#451
b0 "
b1100 :
#452
b1 "
b10000 :
#453
b10 "
b10100 :
#454
b11 "
b11000 :
#455
b100 "
b11100 :
#456
b101 "
b100000 :
#457
b110 "
b100100 :
#458
b111 "
b101000 :
#459
b1000 "
b101100 :
#460
b1001 "
b110000 :
#461
b1010 "
b0 :
#462
b1011 "
b100 :
#463
b1100 "
b1000 :
#464
b1101 "
b1100 :
#465
b1110 "
b10000 :
#466
b1111 "
b10100 :
#467
b10000 "
b11000 :
#468
b0 "
b11100 :
#469
b1 "
b100000 :
#470
b10 "
b100100 :
#471
b11 "
b101000 :
#472
b100 "
b101100 :
#473
b101 "
b110000 :
#474
b110 "
b0 :
#475
b111 "
b100 :
#476
b1000 "
b1000 :
#477
b1001 "
b1100 :
#478
b1010 "
b10000 :
#479
b1011 "
b10100 :
#480
b1100 "
b11000 :
#481
b1101 "
b11100 :
#482
b1110 "
b100000 :
#483
b1111 "
b100100 :
#484
b10000 "
b101000 :
#485
b0 "
b101100 :
#486
b1 "
b110000 :
#487
b10 "
b0 :
#488
b11 "
b100 :
#489
b100 "
b1000 :
#490
b101 "
b1100 :
#491
b110 "
b10000 :
#492
b111 "
b10100 :
#493
b1000 "
b11000 :
#494
b1001 "
b11100 :
#495
b1010 "
b100000 :
#496
b1011 "
b100100 :
#497
b1100 "
b101000 :
#498
b1101 "
b101100 :
#499
b1110 "
b110000 :
#500
b1111 "
b0 :
#501
b10000 "
b100 :
#502
b0 "
b1000 :
#503
b1 "
b1100 :
#504
b10 "
b10000 :
#505
b11 "
b10100 :
#506
b100 "
b11000 :
#507
b101 "
b11100 :
#508
b110 "
b100000 :
#509
b111 "
b100100 :
#510
b1000 "
b101000 :
#511
b1001 "
b101100 :
#512
b1010 "
b110000 :
#513
b1011 "
b0 :
#514
b1100 "
b100 :
#515
b1101 "
b1000 :
#516
b1110 "
b1100 :
#517
b1111 "
b10000 :
#518
b10000 "
b10100 :
#519
b0 "
b11000 :
#520
b1 "
b11100 :
#521
b10 "
b100000 :
#522
b11 "
b100100 :
#523
b100 "
b101000 :
#524
b101 "
b101100 :
#525
b110 "
b110000 :
#526
b111 "
b0 :
#527
b1000 "
b100 :
#528
b1001 "
b1000 :
#529
b1010 "
b1100 :
#530
b1011 "
b10000 :
#531
b1100 "
b10100 :
#532
b1101 "
b11000 :
#533
b1110 "
b11100 :
#534
b1111 "
b100000 :
#535
b10000 "
b100100 :
#536
b0 "
b101000 :
#537
b1 "
b101100 :
#538
b10 "
b110000 :
#539
b11 "
b0 :
#540
b100 "
b100 :
#541
b101 "
b1000 :
#542
b110 "
b1100 :
#543
b111 "
b10000 :
#544
b1000 "
b10100 :
#545
b1001 "
b11000 :
#546
b1010 "
b11100 :
#547
b1011 "
b100000 :
#548
b1100 "
b100100 :
#549
b1101 "
b101000 :
#550
b1110 "
b101100 :
#551
b1111 "
b110000 :
#552
b10000 "
b0 :
#553
b0 "
b100 :
#554
b1 "
b1000 :
#555
b10 "
b1100 :
#556
b11 "
b10000 :
#557
b100 "
b10100 :
#558
b101 "
b11000 :
#559
b110 "
b11100 :
#560
b111 "
b100000 :
#561
b1000 "
b100100 :
#562
b1001 "
b101000 :
#563
b1010 "
b101100 :
#564
b1011 "
b110000 :
#565
b1100 "
b0 :
#566
b1101 "
b100 :
#567
b1110 "
b1000 :
#568
b1111 "
b1100 :
#569
b10000 "
b10000 :
#570
b0 "
b10100 :
#571
b1 "
b11000 :
#572
b10 "
b11100 :
#573
b11 "
b100000 :
#574
b100 "
b100100 :
#575
b101 "
b101000 :
#576
b110 "
b101100 :
#577
b111 "
b110000 :
#578
b1000 "
b0 :
#579
b1001 "
b100 :
#580
b1010 "
b1000 :
#581
b1011 "
b1100 :
#582
b1100 "
b10000 :
#583
b1101 "
b10100 :
#584
b1110 "
b11000 :
#585
b1111 "
b11100 :
#586
b10000 "
b100000 :
#587
b0 "
b100100 :
#588
b1 "
b101000 :
#589
b10 "
b101100 :
#590
b11 "
b110000 :
#591
b100 "
b0 :
#592
b101 "
b100 :
#593
b110 "
b1000 :
#594
b111 "
b1100 :
#595
b1000 "
b10000 :
#596
b1001 "
b10100 :
#597
b1010 "
b11000 :
#598
b1011 "
b11100 :
#599
b1100 "
b100000 :
#600
b1101 "
b100100 :
#601
b1110 "
b101000 :
#602
b1111 "
b101100 :
#603
b10000 "
b110000 :
#604
b0 "
b0 :
#605
b1 "
b100 :
#606
b10 "
b1000 :
#607
b11 "
b1100 :
#608
b100 "
b10000 :
#609
b101 "
b10100 :
#610
b110 "
b11000 :
#611
b111 "
b11100 :
#612
b1000 "
b100000 :
#613
b1001 "
b100100 :
#614
b1010 "
b101000 :
#615
b1011 "
b101100 :
#616
b1100 "
b110000 :
#617
b1101 "
b0 :
#618
b1110 "
b100 :
#619
b1111 "
b1000 :
#620
b10000 "
b1100 :
#621
b0 "
b10000 :
#622
b1 "
b10100 :
#623
b10 "
b11000 :
#624
b11 "
b11100 :
#625
b100 "
b100000 :
#626
b101 "
b100100 :
#627
b110 "
b101000 :
#628
b111 "
b101100 :
#629
b1000 "
b110000 :
#630
b1001 "
b0 :
#631
b1010 "
b100 :
#632
b1011 "
b1000 :
#633
b1100 "
b1100 :
#634
b1101 "
b10000 :
#635
b1110 "
b10100 :
#636
b1111 "
b11000 :
#637
b10000 "
b11100 :
#638
b0 "
b100000 :
#639
b1 "
b100100 :
#640
b10 "
b101000 :
#641
b11 "
b101100 :
#642
b100 "
b110000 :
#643
b101 "
b0 :
#644
b110 "
b100 :
#645
b111 "
b1000 :
#646
b1000 "
b1100 :
#647
b1001 "
b10000 :
#648
b1010 "
b10100 :
#649
b1011 "
b11000 :
#650
b1100 "
b11100 :
#651
b1101 "
b100000 :
#652
b1110 "
b100100 :
#653
b1111 "
b101000 :
#654
b10000 "
b101100 :
#655
b0 "
b110000 :
#656
b1 "
b0 :
#657
b10 "
b100 :
#658
b11 "
b1000 :
#659
b100 "
b1100 :
#660
b101 "
b10000 :
#661
b110 "
b10100 :
#662
b111 "
b11000 :
#663
b1000 "
b11100 :
#664
b1001 "
b100000 :
#665
b1010 "
b100100 :
#666
b1011 "
b101000 :
#667
b1100 "
b101100 :
#668
b1101 "
b110000 :
#669
b1110 "
b0 :
#670
b1111 "
b100 :
#671
b10000 "
b1000 :
#672
b0 "
b1100 :
#673
b1 "
b10000 :
#674
b10 "
b10100 :
#675
b11 "
b11000 :
#676
b100 "
b11100 :
#677
b101 "
b100000 :
#678
b110 "
b100100 :
#679
b111 "
b101000 :
#680
b1000 "
b101100 :
#681
b1001 "
b110000 :
#682
b1010 "
b0 :
#683
b1011 "
b100 :
#684
b1100 "
b1000 :
#685
b1101 "
b1100 :
#686
b1110 "
b10000 :
#687
b1111 "
b10100 :
#688
b10000 "
b11000 :
#689
b0 "
b11100 :
#690
b1 "
b100000 :
#691
b10 "
b100100 :
#692
b11 "
b101000 :
#693
b100 "
b101100 :
#694
b101 "
b110000 :
#695
b110 "
b0 :
#696
b111 "
b100 :
#697
b1000 "
b1000 :
#698
b1001 "
b1100 :
#699
b1010 "
b10000 :
#700
b1011 "
b10100 :
#701
b1100 "
b11000 :
#702
b1101 "
b11100 :
#703
b1110 "
b100000 :
#704
b1111 "
b100100 :
#705
b10000 "
b101000 :
#706
b0 "
b101100 :
#707
b1 "
b110000 :
#708
b10 "
b0 :
#709
b11 "
b100 :
#710
b100 "
b1000 :
#711
b101 "
b1100 :
#712
b110 "
b10000 :
#713
b111 "
b10100 :
#714
b1000 "
b11000 :
#715
b1001 "
b11100 :
#716
b1010 "
b100000 :
#717
b1011 "
b100100 :
#718
b1100 "
b101000 :
#719
b1101 "
b101100 :
#720
b1110 "
b110000 :
#721
b1111 "
b0 :
#722
b10000 "
b100 :
#723
b0 "
b1000 :
#724
b1 "
b1100 :
#725
b10 "
b10000 :
#726
b11 "
b10100 :
#727
b100 "
b11000 :
#728
b101 "
b11100 :
#729
b110 "
b100000 :
#730
b111 "
b100100 :
#731
b1000 "
b101000 :
#732
b1001 "
b101100 :
#733
b1010 "
b110000 :
#734
b1011 "
b0 :
#735
b1100 "
b100 :
#736
b1101 "
b1000 :
#737
b1110 "
b1100 :
#738
b1111 "
b10000 :
#739
b10000 "
b10100 :
#740
b0 "
b11000 :
#741
b1 "
b11100 :
#742
b10 "
b100000 :
#743
b11 "
b100100 :
#744
b100 "
b101000 :
#745
b101 "
b101100 :
#746
b110 "
b110000 :
#747
b111 "
b0 :
#748
b1000 "
b100 :
#749
b1001 "
b1000 :
#750
b1010 "
b1100 :
#751
b1011 "
b10000 :
#752
b1100 "
b10100 :
#753
b1101 "
b11000 :
#754
b1110 "
b11100 :
#755
b1111 "
b100000 :
#756
b10000 "
b100100 :
#757
b0 "
b101000 :
#758
b1 "
b101100 :
#759
b10 "
b110000 :
#760
b11 "
b0 :
#761
b100 "
b100 :
#762
b101 "
b1000 :
#763
b110 "
b1100 :
#764
b111 "
b10000 :
#765
b1000 "
b10100 :
#766
b1001 "
b11000 :
#767
b1010 "
b11100 :
#768
b1011 "
b100000 :
#769
b1100 "
b100100 :
#770
b1101 "
b101000 :
#771
b1110 "
b101100 :
#772
b1111 "
b110000 :
#773
b10000 "
b0 :
#774
b0 "
b100 :
#775
b1 "
b1000 :
#776
b10 "
b1100 :
#777
b11 "
b10000 :
#778
b100 "
b10100 :
#779
b101 "
b11000 :
#780
b110 "
b11100 :
#781
b111 "
b100000 :
#782
b1000 "
b100100 :
#783
b1001 "
b101000 :
#784
b1010 "
b101100 :
#785
b1011 "
b110000 :
#786
b1100 "
b0 :
#787
b1101 "
b100 :
#788
b1110 "
b1000 :
#789
b1111 "
b1100 :
#790
b10000 "
b10000 :
#791
b0 "
b10100 :
#792
b1 "
b11000 :
#793
b10 "
b11100 :
#794
b11 "
b100000 :
#795
b100 "
b100100 :
#796
b101 "
b101000 :
#797
b110 "
b101100 :
#798
b111 "
b110000 :
#799
b1000 "
b0 :
#800
b1001 "
b100 :
#801
b1010 "
b1000 :
#802
b1011 "
b1100 :
#803
b1100 "
b10000 :
#804
b1101 "
b10100 :
#805
b1110 "
b11000 :
#806
b1111 "
b11100 :
#807
b10000 "
b100000 :
#808
b0 "
b100100 :
#809
b1 "
b101000 :
#810
b10 "
b101100 :
#811
b11 "
b110000 :
#812
b100 "
b0 :
#813
b101 "
b100 :
#814
b110 "
b1000 :
#815
b111 "
b1100 :
#816
b1000 "
b10000 :
#817
b1001 "
b10100 :
#818
b1010 "
b11000 :
#819
b1011 "
b11100 :
#820
b1100 "
b100000 :
#821
b1101 "
b100100 :
#822
b1110 "
b101000 :
#823
b1111 "
b101100 :
#824
b10000 "
b110000 :
#825
b0 "
b0 :
#826
b1 "
b100 :
#827
b10 "
b1000 :
#828
b11 "
b1100 :
#829
b100 "
b10000 :
#830
b101 "
b10100 :
#831
b110 "
b11000 :
#832
b111 "
b11100 :
#833
b1000 "
b100000 :
#834
b1001 "
b100100 :
#835
b1010 "
b101000 :
#836
b1011 "
b101100 :
#837
b1100 "
b110000 :
#838
b1101 "
b0 :
#839
b1110 "
b100 :
#840
b1111 "
b1000 :
#841
b10000 "
b1100 :
#842
b0 "
b10000 :
#843
b1 "
b10100 :
#844
b10 "
b11000 :
#845
b11 "
b11100 :
#846
b100 "
b100000 :
#847
b101 "
b100100 :
#848
b110 "
b101000 :
#849
b111 "
b101100 :
#850
b1000 "
b110000 :
#851
b1001 "
b0 :
#852
b1010 "
b100 :
#853
b1011 "
b1000 :
#854
b1100 "
b1100 :
#855
b1101 "
b10000 :
#856
b1110 "
b10100 :
#857
b1111 "
b11000 :
#858
b10000 "
b11100 :
#859
b0 "
b100000 :
#860
b1 "
b100100 :
#861
b10 "
b101000 :
#862
b11 "
b101100 :
#863
b100 "
b110000 :
#864
b101 "
b0 :
#865
b110 "
b100 :
#866
b111 "
b1000 :
#867
b1000 "
b1100 :
#868
b1001 "
b10000 :
#869
b1010 "
b10100 :
#870
b1011 "
b11000 :
#871
b1100 "
b11100 :
#872
b1101 "
b100000 :
#873
b1110 "
b100100 :
#874
b1111 "
b101000 :
#875
b10000 "
b101100 :
#876
b0 "
b110000 :
#877
b1 "
b0 :
#878
b10 "
b100 :
#879
b11 "
b1000 :
#880
b100 "
b1100 :
#881
b101 "
b10000 :
#882
b110 "
b10100 :
#883
b111 "
b11000 :
#884
b1000 "
b11100 :
#885
b1001 "
b100000 :
#886
b1010 "
b100100 :
#887
b1011 "
b101000 :
#888
b1100 "
b101100 :
#889
b1101 "
b110000 :
#890
b1110 "
b0 :
#891
b1111 "
b100 :
#892
b10000 "
b1000 :
#893
b0 "
b1100 :
#894
b1 "
b10000 :
#895
b10 "
b10100 :
#896
b11 "
b11000 :
#897
b100 "
b11100 :
#898
b101 "
b100000 :
#899
b110 "
b100100 :
#900
b111 "
b101000 :
#901
b1000 "
b101100 :
#902
b1001 "
b110000 :
#903
b1010 "
b0 :
#904
b1011 "
b100 :
#905
b1100 "
b1000 :
#906
b1101 "
b1100 :
#907
b1110 "
b10000 :
#908
b1111 "
b10100 :
#909
b10000 "
b11000 :
#910
b0 "
b11100 :
#911
b1 "
b100000 :
#912
b10 "
b100100 :
#913
b11 "
b101000 :
#914
b100 "
b101100 :
#915
b101 "
b110000 :
#916
b110 "
b0 :
#917
b111 "
b100 :
#918
b1000 "
b1000 :
#919
b1001 "
b1100 :
#920
b1010 "
b10000 :
#921
b1011 "
b10100 :
#922
b1100 "
b11000 :
#923
b1101 "
b11100 :
#924
b1110 "
b100000 :
#925
b1111 "
b100100 :
#926
b10000 "
b101000 :
#927
b0 "
b101100 :
#928
b1 "
b110000 :
#929
b10 "
b0 :
#930
b11 "
b100 :
#931
b100 "
b1000 :
#932
b101 "
b1100 :
#933
b110 "
b10000 :
#934
b111 "
b10100 :
#935
b1000 "
b11000 :
#936
b1001 "
b11100 :
#937
b1010 "
b100000 :
#938
b1011 "
b100100 :
#939
b1100 "
b101000 :
#940
b1101 "
b101100 :
#941
b1110 "
b110000 :
#942
b1111 "
b0 :
#943
b10000 "
b100 :
#944
b0 "
b1000 :
#945
b1 "
b1100 :
#946
b10 "
b10000 :
#947
b11 "
b10100 :
#948
b100 "
b11000 :
#949
b101 "
b11100 :
#950
b110 "
b100000 :
#951
b111 "
b100100 :
#952
b1000 "
b101000 :
#953
b1001 "
b101100 :
#954
b1010 "
b110000 :
#955
b1011 "
b0 :
#956
b1100 "
b100 :
#957
b1101 "
b1000 :
#958
b1110 "
b1100 :
#959
b1111 "
b10000 :
#960
b10000 "
b10100 :
#961
b0 "
b11000 :
#962
b1 "
b11100 :
#963
b10 "
b100000 :
#964
b11 "
b100100 :
#965
b100 "
b101000 :
#966
b101 "
b101100 :
#967
b110 "
b110000 :
#968
b111 "
b0 :
#969
b1000 "
b100 :
#970
b1001 "
b1000 :
#971
b1010 "
b1100 :
#972
b1011 "
b10000 :
#973
b1100 "
b10100 :
#974
b1101 "
b11000 :
#975
b1110 "
b11100 :
#976
b1111 "
b100000 :
#977
b10000 "
b100100 :
#978
b0 "
b101000 :
#979
b1 "
b101100 :
#980
b10 "
b110000 :
#981
b11 "
b0 :
#982
b100 "
b100 :
#983
b101 "
b1000 :
#984
b110 "
b1100 :
#985
b111 "
b10000 :
#986
b1000 "
b10100 :
#987
b1001 "
b11000 :
#988
b1010 "
b11100 :
#989
b1011 "
b100000 :
#990
b1100 "
b100100 :
#991
b1101 "
b101000 :
#992
b1110 "
b101100 :
