vivado/.Xil/Vivado-17336-DESKTOP-CDN1SDU/hw_ila_data_1/zip_work/waveform.vcd
$date
        2019-Dec-26 12:08:04
$end
$version
        Vivado v2018.2 (64-bit)
$end
$timescale
        1ps
$end
$scope module dut $end
$var reg 16 " zusys_i/system_ila_0/inst/probe0_1 [15:0] $end
$var reg 1 2 zusys_i/system_ila_0/inst/probe1_1 $end
$var reg 1 3 zusys_i/system_ila_0/inst/probe2_1 $end
$var reg 1 4 zusys_i/system_ila_0/inst/probe3_1 $end
$var reg 1 5 zusys_i/system_ila_0/inst/probe4_1 $end
$var reg 1 6 zusys_i/system_ila_0/inst/probe5_1 $end
$var reg 1 7 zusys_i/system_ila_0/inst/probe6_1 $end
$var reg 1 8 zusys_i/system_ila_0/inst/probe7_1 $end
$var reg 1 9 zusys_i/system_ila_0/inst/probe8_1 $end
$var reg 16 : zusys_i/system_ila_0/inst/probe9_1 [15:0] $end
$var reg 1 J zusys_i/system_ila_0/inst/probe10_1 $end
$var reg 1 K zusys_i/system_ila_0/inst/probe11_1 $end
$var reg 1 L zusys_i/system_ila_0/inst/probe12_1 $end
$var reg 1 M zusys_i/system_ila_0/inst/probe13_1 $end
$var reg 1 N _TRIGGER $end
$var reg 1 O _WINDOW $end
$var reg 1 P _GAP $end
$upscope $end
$enddefinitions $end
#0
$dumpvars
b1100 "
02
13
14
15
06
17
08
09
b1100 :
1J
1K
1L
0M
0N
1O
0P
$end
#1
b1110 "
b1101 :
#2
b10000 "
b1110 :
#3
b10010 "
b1111 :
#4
b10100 "
b10000 :
#5
b10110 "
b0 :
#6
b11000 "
b1 :
#7
b11010 "
b10 :
#8
b11100 "
b11 :
#9
b11110 "
b100 :
#10
b100000 "
b101 :
#11
b0 "
b110 :
#12
b10 "
b111 :
#13
b100 "
b1000 :
#14
b110 "
b1001 :
#15
b1000 "
b1010 :
#16
b1010 "
b1011 :
#17
b1100 "
b1100 :
#18
b1110 "
b1101 :
#19
b10000 "
b1110 :
#20
b10010 "
b1111 :
#21
b10100 "
b10000 :
#22
b10110 "
b0 :
#23
b11000 "
b1 :
#24
b11010 "
b10 :
#25
b11100 "
b11 :
#26
b11110 "
b100 :
#27
b100000 "
b101 :
#28
b0 "
b110 :
#29
b10 "
b111 :
#30
b100 "
b1000 :
#31
b110 "
b1001 :
#32
b1000 "
b1010 :
#33
b1010 "
b1011 :
#34
b1100 "
b1100 :
#35
b1110 "
b1101 :
#36
b10000 "
b1110 :
#37
b10010 "
b1111 :
#38
b10100 "
b10000 :
#39
b10110 "
b0 :
#40
b11000 "
b1 :
#41
b11010 "
b10 :
#42
b11100 "
b11 :
#43
b11110 "
b100 :
#44
b100000 "
b101 :
#45
b0 "
b110 :
#46
b10 "
b111 :
#47
b100 "
b1000 :
#48
b110 "
b1001 :
#49
b1000 "
b1010 :
#50
b1010 "
b1011 :
#51
b1100 "
b1100 :
#52
b1110 "
b1101 :
#53
b10000 "
b1110 :
#54
b10010 "
b1111 :
#55
b10100 "
b10000 :
#56
b10110 "
b0 :
#57
b11000 "
b1 :
#58
b11010 "
b10 :
#59
b11100 "
b11 :
#60
b11110 "
b100 :
#61
b100000 "
b101 :
#62
b0 "
b110 :
#63
b10 "
b111 :
#64
b100 "
b1000 :
#65
b110 "
b1001 :
#66
b1000 "
b1010 :
#67
b1010 "
b1011 :
#68
b1100 "
b1100 :
#69
b1110 "
b1101 :
#70
b10000 "
b1110 :
#71
b10010 "
b1111 :
#72
b10100 "
b10000 :
#73
b10110 "
b0 :
#74
b11000 "
b1 :
#75
b11010 "
b10 :
#76
b11100 "
b11 :
#77
b11110 "
b100 :
#78
b100000 "
b101 :
#79
b0 "
b110 :
#80
b10 "
b111 :
#81
b100 "
b1000 :
#82
b110 "
b1001 :
#83
b1000 "
b1010 :
#84
b1010 "
b1011 :
#85
b1100 "
b1100 :
#86
b1110 "
b1101 :
#87
b10000 "
b1110 :
#88
b10010 "
b1111 :
#89
b10100 "
b10000 :
#90
b10110 "
b0 :
#91
b11000 "
b1 :
#92
b11010 "
b10 :
#93
b11100 "
b11 :
#94
b11110 "
b100 :
#95
b100000 "
b101 :
#96
b0 "
b110 :
#97
b10 "
b111 :
#98
b100 "
b1000 :
#99
b110 "
b1001 :
#100
b1000 "
b1010 :
#101
b1010 "
b1011 :
#102
b1100 "
b1100 :
#103
b1110 "
b1101 :
#104
b10000 "
b1110 :
#105
b10010 "
b1111 :
#106
b10100 "
b10000 :
#107
b10110 "
b0 :
#108
b11000 "
b1 :
#109
b11010 "
b10 :
#110
b11100 "
b11 :
#111
b11110 "
b100 :
#112
b100000 "
b101 :
#113
b0 "
b110 :
#114
b10 "
b111 :
#115
b100 "
b1000 :
#116
b110 "
b1001 :
#117
b1000 "
b1010 :
#118
b1010 "
b1011 :
#119
b1100 "
b1100 :
#120
b1110 "
b1101 :
#121
b10000 "
b1110 :
#122
b10010 "
b1111 :
#123
b10100 "
b10000 :
#124
b10110 "
b0 :
#125
b11000 "
b1 :
#126
b11010 "
b10 :
#127
b11100 "
b11 :
#128
b11110 "
b100 :
#129
b100000 "
b101 :
#130
b0 "
b110 :
#131
b10 "
b111 :
#132
b100 "
b1000 :
#133
b110 "
b1001 :
#134
b1000 "
b1010 :
#135
b1010 "
b1011 :
#136
b1100 "
b1100 :
#137
b1110 "
b1101 :
#138
b10000 "
b1110 :
#139
b10010 "
b1111 :
#140
b10100 "
b10000 :
#141
b10110 "
b0 :
#142
b11000 "
b1 :
#143
b11010 "
b10 :
#144
b11100 "
b11 :
#145
b11110 "
b100 :
#146
b100000 "
b101 :
#147
b0 "
b110 :
#148
b10 "
b111 :
#149
b100 "
b1000 :
#150
b110 "
b1001 :
#151
b1000 "
b1010 :
#152
b1010 "
b1011 :
#153
b1100 "
b1100 :
#154
b1110 "
b1101 :
#155
b10000 "
b1110 :
#156
b10010 "
b1111 :
#157
b10100 "
b10000 :
#158
b10110 "
b0 :
#159
b11000 "
b1 :
#160
b11010 "
b10 :
#161
b11100 "
b11 :
#162
b11110 "
b100 :
#163
b100000 "
b101 :
#164
b0 "
b110 :
#165
b10 "
b111 :
#166
b100 "
b1000 :
#167
b110 "
b1001 :
#168
b1000 "
b1010 :
#169
b1010 "
b1011 :
#170
b1100 "
b1100 :
#171
b1110 "
b1101 :
#172
b10000 "
b1110 :
#173
b10010 "
b1111 :
#174
b10100 "
b10000 :
#175
b10110 "
b0 :
#176
b11000 "
b1 :
#177
b11010 "
b10 :
#178
b11100 "
b11 :
#179
b11110 "
b100 :
#180
b100000 "
b101 :
#181
b0 "
b110 :
#182
b10 "
b111 :
#183
b100 "
b1000 :
#184
b110 "
b1001 :
#185
b1000 "
b1010 :
#186
b1010 "
b1011 :
#187
b1100 "
b1100 :
#188
b1110 "
b1101 :
#189
b10000 "
b1110 :
#190
b10010 "
b1111 :
#191
b10100 "
b10000 :
#192
b10110 "
b0 :
#193
b11000 "
b1 :
#194
b11010 "
b10 :
#195
b11100 "
b11 :
#196
b11110 "
b100 :
#197
b100000 "
b101 :
#198
b0 "
b110 :
#199
b10 "
b111 :
#200
b100 "
b1000 :
#201
b110 "
b1001 :
#202
b1000 "
b1010 :
#203
b1010 "
b1011 :
#204
b1100 "
b1100 :
#205
b1110 "
b1101 :
#206
b10000 "
b1110 :
#207
b10010 "
b1111 :
#208
b10100 "
b10000 :
#209
b10110 "
b0 :
#210
b11000 "
b1 :
#211
b11010 "
b10 :
#212
b11100 "
b11 :
#213
b11110 "
b100 :
#214
b100000 "
b101 :
#215
b0 "
b110 :
#216
b10 "
b111 :
#217
b100 "
b1000 :
#218
b110 "
b1001 :
#219
b1000 "
b1010 :
#220
b1010 "
b1011 :
#221
b1100 "
b1100 :
#222
b1110 "
b1101 :
#223
b10000 "
b1110 :
#224
b10010 "
b1111 :
#225
b10100 "
b10000 :
#226
b10110 "
b0 :
#227
b11000 "
b1 :
#228
b11010 "
b10 :
#229
b11100 "
b11 :
#230
b11110 "
b100 :
#231
b100000 "
b101 :
#232
b0 "
b110 :
#233
b10 "
b111 :
#234
b100 "
b1000 :
#235
b110 "
b1001 :
#236
b1000 "
b1010 :
#237
b1010 "
b1011 :
#238
b1100 "
b1100 :
#239
b1110 "
b1101 :
#240
b10000 "
b1110 :
#241
b10010 "
b1111 :
#242
b10100 "
b10000 :
#243
b10110 "
b0 :
#244
b11000 "
b1 :
#245
b11010 "
b10 :
#246
b11100 "
b11 :
#247
b11110 "
b100 :
#248
b100000 "
b101 :
#249
b0 "
b110 :
#250
b10 "
b111 :
#251
b100 "
b1000 :
#252
b110 "
b1001 :
#253
b1000 "
b1010 :
#254
b1010 "
b1011 :
#255
b1100 "
b1100 :
#256
b1110 "
b1101 :
#257
b10000 "
b1110 :
#258
b10010 "
b1111 :
#259
b10100 "
b10000 :
#260
b10110 "
b0 :
#261
b11000 "
b1 :
#262
b11010 "
b10 :
#263
b11100 "
b11 :
#264
b11110 "
b100 :
#265
b100000 "
b101 :
#266
b0 "
b110 :
#267
b10 "
b111 :
#268
b100 "
b1000 :
#269
b110 "
b1001 :
#270
b1000 "
b1010 :
#271
b1010 "
b1011 :
#272
b1100 "
b1100 :
#273
b1110 "
b1101 :
#274
b10000 "
b1110 :
#275
b10010 "
b1111 :
#276
b10100 "
b10000 :
#277
b10110 "
b0 :
#278
b11000 "
b1 :
#279
b11010 "
b10 :
#280
b11100 "
b11 :
#281
b11110 "
b100 :
#282
b100000 "
b101 :
#283
b0 "
b110 :
#284
b10 "
b111 :
#285
b100 "
b1000 :
#286
b110 "
b1001 :
#287
b1000 "
b1010 :
#288
b1010 "
b1011 :
#289
b1100 "
b1100 :
#290
b1110 "
b1101 :
#291
b10000 "
b1110 :
#292
b10010 "
b1111 :
#293
b10100 "
b10000 :
#294
b10110 "
b0 :
#295
b11000 "
b1 :
#296
b11010 "
b10 :
#297
b11100 "
b11 :
#298
b11110 "
b100 :
#299
b100000 "
b101 :
#300
b0 "
b110 :
#301
b10 "
b111 :
#302
b100 "
b1000 :
#303
b110 "
b1001 :
#304
b1000 "
b1010 :
#305
b1010 "
b1011 :
#306
b1100 "
b1100 :
#307
b1110 "
b1101 :
#308
b10000 "
b1110 :
#309
b10010 "
b1111 :
#310
b10100 "
b10000 :
#311
b10110 "
b0 :
#312
b11000 "
b1 :
#313
b11010 "
b10 :
#314
b11100 "
b11 :
#315
b11110 "
b100 :
#316
b100000 "
b101 :
#317
b0 "
b110 :
#318
b10 "
b111 :
#319
b100 "
b1000 :
#320
b110 "
b1001 :
#321
b1000 "
b1010 :
#322
b1010 "
b1011 :
#323
b1100 "
b1100 :
#324
b1110 "
b1101 :
#325
b10000 "
b1110 :
#326
b10010 "
b1111 :
#327
b10100 "
b10000 :
#328
b10110 "
b0 :
#329
b11000 "
b1 :
#330
b11010 "
b10 :
#331
b11100 "
b11 :
#332
b11110 "
b100 :
#333
b100000 "
b101 :
#334
b0 "
b110 :
#335
b10 "
b111 :
#336
b100 "
b1000 :
#337
b110 "
b1001 :
#338
b1000 "
b1010 :
#339
b1010 "
b1011 :
#340
b1100 "
b1100 :
#341
b1110 "
b1101 :
#342
b10000 "
b1110 :
#343
b10010 "
b1111 :
#344
b10100 "
b10000 :
#345
b10110 "
b0 :
#346
b11000 "
b1 :
#347
b11010 "
b10 :
#348
b11100 "
b11 :
#349
b11110 "
b100 :
#350
b100000 "
b101 :
#351
b0 "
b110 :
#352
b10 "
b111 :
#353
b100 "
b1000 :
#354
b110 "
b1001 :
#355
b1000 "
b1010 :
#356
b1010 "
b1011 :
#357
b1100 "
b1100 :
#358
b1110 "
b1101 :
#359
b10000 "
b1110 :
#360
b10010 "
b1111 :
#361
b10100 "
b10000 :
#362
b10110 "
b0 :
#363
b11000 "
b1 :
#364
b11010 "
b10 :
#365
b11100 "
b11 :
#366
b11110 "
b100 :
#367
b100000 "
b101 :
#368
b0 "
b110 :
#369
b10 "
b111 :
#370
b100 "
b1000 :
#371
b110 "
b1001 :
#372
b1000 "
b1010 :
#373
b1010 "
b1011 :
#374
b1100 "
b1100 :
#375
b1110 "
b1101 :
#376
b10000 "
b1110 :
#377
b10010 "
b1111 :
#378
b10100 "
b10000 :
#379
b10110 "
b0 :
#380
b11000 "
b1 :
#381
b11010 "
b10 :
#382
b11100 "
b11 :
#383
b11110 "
b100 :
#384
b100000 "
b101 :
#385
b0 "
b110 :
#386
b10 "
b111 :
#387
b100 "
b1000 :
#388
b110 "
b1001 :
#389
b1000 "
b1010 :
#390
b1010 "
b1011 :
#391
b1100 "
b1100 :
#392
b1110 "
b1101 :
#393
b10000 "
b1110 :
#394
b10010 "
b1111 :
#395
b10100 "
b10000 :
#396
b10110 "
b0 :
#397
b11000 "
b1 :
#398
b11010 "
b10 :
#399
b11100 "
b11 :
#400
b11110 "
b100 :
#401
b100000 "
b101 :
#402
b0 "
b110 :
#403
b10 "
b111 :
#404
b100 "
b1000 :
#405
b110 "
b1001 :
#406
b1000 "
b1010 :
#407
b1010 "
b1011 :
#408
b1100 "
b1100 :
#409
b1110 "
b1101 :
#410
b10000 "
b1110 :
#411
b10010 "
b1111 :
#412
b10100 "
b10000 :
#413
b10110 "
b0 :
#414
b11000 "
b1 :
#415
b11010 "
b10 :
#416
b11100 "
b11 :
#417
b11110 "
b100 :
#418
b100000 "
b101 :
#419
b0 "
b110 :
#420
b10 "
b111 :
#421
b100 "
b1000 :
#422
b110 "
b1001 :
#423
b1000 "
b1010 :
#424
b1010 "
b1011 :
#425
b1100 "
b1100 :
#426
b1110 "
b1101 :
#427
b10000 "
b1110 :
#428
b10010 "
b1111 :
#429
b10100 "
b10000 :
#430
b10110 "
b0 :
#431
b11000 "
b1 :
#432
b11010 "
b10 :
#433
b11100 "
b11 :
#434
b11110 "
b100 :
#435
b100000 "
b101 :
#436
b0 "
b110 :
#437
b10 "
b111 :
#438
b100 "
b1000 :
#439
b110 "
b1001 :
#440
b1000 "
b1010 :
#441
b1010 "
b1011 :
#442
b1100 "
b1100 :
#443
b1110 "
b1101 :
#444
b10000 "
b1110 :
#445
b10010 "
b1111 :
#446
b10100 "
b10000 :
#447
b10110 "
b0 :
#448
b11000 "
b1 :
#449
b11010 "
b10 :
#450
b11100 "
b11 :
#451
b11110 "
b100 :
#452
b100000 "
b101 :
#453
b0 "
b110 :
#454
b10 "
b111 :
#455
b100 "
b1000 :
#456
b110 "
b1001 :
#457
b1000 "
b1010 :
#458
b1010 "
b1011 :
#459
b1100 "
b1100 :
#460
b1110 "
b1101 :
#461
b10000 "
b1110 :
#462
b10010 "
b1111 :
#463
b10100 "
b10000 :
#464
b10110 "
b0 :
#465
b11000 "
b1 :
#466
b11010 "
b10 :
#467
b11100 "
b11 :
#468
b11110 "
b100 :
#469
b100000 "
b101 :
#470
b0 "
b110 :
#471
b10 "
b111 :
#472
b100 "
b1000 :
#473
b110 "
b1001 :
#474
b1000 "
b1010 :
#475
b1010 "
b1011 :
#476
b1100 "
b1100 :
#477
b1110 "
b1101 :
#478
b10000 "
b1110 :
#479
b10010 "
b1111 :
#480
b10100 "
b10000 :
#481
b10110 "
b0 :
#482
b11000 "
b1 :
#483
b11010 "
b10 :
#484
b11100 "
b11 :
#485
b11110 "
b100 :
#486
b100000 "
b101 :
#487
b0 "
b110 :
#488
b10 "
b111 :
#489
b100 "
b1000 :
#490
b110 "
b1001 :
#491
b1000 "
b1010 :
#492
b1010 "
b1011 :
#493
b1100 "
b1100 :
#494
b1110 "
b1101 :
#495
b10000 "
b1110 :
#496
b10010 "
b1111 :
#497
b10100 "
b10000 :
#498
b10110 "
b0 :
#499
b11000 "
b1 :
#500
b11010 "
b10 :
#501
b11100 "
b11 :
#502
b11110 "
b100 :
#503
b100000 "
b101 :
#504
b0 "
b110 :
#505
b10 "
b111 :
#506
b100 "
b1000 :
#507
b110 "
b1001 :
#508
b1000 "
b1010 :
#509
b1010 "
b1011 :
#510
b1100 "
b1100 :
#511
b1110 "
b1101 :
#512
b10000 "
b1110 :
#513
b10010 "
b1111 :
#514
b10100 "
b10000 :
#515
b10110 "
b0 :
#516
b11000 "
b1 :
#517
b11010 "
b10 :
#518
b11100 "
b11 :
#519
b11110 "
b100 :
#520
b100000 "
b101 :
#521
b0 "
b110 :
#522
b10 "
b111 :
#523
b100 "
b1000 :
#524
b110 "
b1001 :
#525
b1000 "
b1010 :
#526
b1010 "
b1011 :
#527
b1100 "
b1100 :
#528
b1110 "
b1101 :
#529
b10000 "
b1110 :
#530
b10010 "
b1111 :
#531
b10100 "
b10000 :
#532
b10110 "
b0 :
#533
b11000 "
b1 :
#534
b11010 "
b10 :
#535
b11100 "
b11 :
#536
b11110 "
b100 :
#537
b100000 "
b101 :
#538
b0 "
b110 :
#539
b10 "
b111 :
#540
b100 "
b1000 :
#541
b110 "
b1001 :
#542
b1000 "
b1010 :
#543
b1010 "
b1011 :
#544
b1100 "
b1100 :
#545
b1110 "
b1101 :
#546
b10000 "
b1110 :
#547
b10010 "
b1111 :
#548
b10100 "
b10000 :
#549
b10110 "
b0 :
#550
b11000 "
b1 :
#551
b11010 "
b10 :
#552
b11100 "
b11 :
#553
b11110 "
b100 :
#554
b100000 "
b101 :
#555
b0 "
b110 :
#556
b10 "
b111 :
#557
b100 "
b1000 :
#558
b110 "
b1001 :
#559
b1000 "
b1010 :
#560
b1010 "
b1011 :
#561
b1100 "
b1100 :
#562
b1110 "
b1101 :
#563
b10000 "
b1110 :
#564
b10010 "
b1111 :
#565
b10100 "
b10000 :
#566
b10110 "
b0 :
#567
b11000 "
b1 :
#568
b11010 "
b10 :
#569
b11100 "
b11 :
#570
b11110 "
b100 :
#571
b100000 "
b101 :
#572
b0 "
b110 :
#573
b10 "
b111 :
#574
b100 "
b1000 :
#575
b110 "
b1001 :
#576
b1000 "
b1010 :
#577
b1010 "
b1011 :
#578
b1100 "
b1100 :
#579
b1110 "
b1101 :
#580
b10000 "
b1110 :
#581
b10010 "
b1111 :
#582
b10100 "
b10000 :
#583
b10110 "
b0 :
#584
b11000 "
b1 :
#585
b11010 "
b10 :
#586
b11100 "
b11 :
#587
b11110 "
b100 :
#588
b100000 "
b101 :
#589
b0 "
b110 :
#590
b10 "
b111 :
#591
b100 "
b1000 :
#592
b110 "
b1001 :
#593
b1000 "
b1010 :
#594
b1010 "
b1011 :
#595
b1100 "
b1100 :
#596
b1110 "
b1101 :
#597
b10000 "
b1110 :
#598
b10010 "
b1111 :
#599
b10100 "
b10000 :
#600
b10110 "
b0 :
#601
b11000 "
b1 :
#602
b11010 "
b10 :
#603
b11100 "
b11 :
#604
b11110 "
b100 :
#605
b100000 "
b101 :
#606
b0 "
b110 :
#607
b10 "
b111 :
#608
b100 "
b1000 :
#609
b110 "
b1001 :
#610
b1000 "
b1010 :
#611
b1010 "
b1011 :
#612
b1100 "
b1100 :
#613
b1110 "
b1101 :
#614
b10000 "
b1110 :
#615
b10010 "
b1111 :
#616
b10100 "
b10000 :
#617
b10110 "
b0 :
#618
b11000 "
b1 :
#619
b11010 "
b10 :
#620
b11100 "
b11 :
#621
b11110 "
b100 :
#622
b100000 "
b101 :
#623
b0 "
b110 :
#624
b10 "
b111 :
#625
b100 "
b1000 :
#626
b110 "
b1001 :
#627
b1000 "
b1010 :
#628
b1010 "
b1011 :
#629
b1100 "
b1100 :
#630
b1110 "
b1101 :
#631
b10000 "
b1110 :
#632
b10010 "
b1111 :
#633
b10100 "
b10000 :
#634
b10110 "
b0 :
#635
b11000 "
b1 :
#636
b11010 "
b10 :
#637
b11100 "
b11 :
#638
b11110 "
b100 :
#639
b100000 "
b101 :
#640
b0 "
b110 :
#641
b10 "
b111 :
#642
b100 "
b1000 :
#643
b110 "
b1001 :
#644
b1000 "
b1010 :
#645
b1010 "
b1011 :
#646
b1100 "
b1100 :
#647
b1110 "
b1101 :
#648
b10000 "
b1110 :
#649
b10010 "
b1111 :
#650
b10100 "
b10000 :
#651
b10110 "
b0 :
#652
b11000 "
b1 :
#653
b11010 "
b10 :
#654
b11100 "
b11 :
#655
b11110 "
b100 :
#656
b100000 "
b101 :
#657
b0 "
b110 :
#658
b10 "
b111 :
#659
b100 "
b1000 :
#660
b110 "
b1001 :
#661
b1000 "
b1010 :
#662
b1010 "
b1011 :
#663
b1100 "
b1100 :
#664
b1110 "
b1101 :
#665
b10000 "
b1110 :
#666
b10010 "
b1111 :
#667
b10100 "
b10000 :
#668
b10110 "
b0 :
#669
b11000 "
b1 :
#670
b11010 "
b10 :
#671
b11100 "
b11 :
#672
b11110 "
b100 :
#673
b100000 "
b101 :
#674
b0 "
b110 :
#675
b10 "
b111 :
#676
b100 "
b1000 :
#677
b110 "
b1001 :
#678
b1000 "
b1010 :
#679
b1010 "
b1011 :
#680
b1100 "
b1100 :
#681
b1110 "
b1101 :
#682
b10000 "
b1110 :
#683
b10010 "
b1111 :
#684
b10100 "
b10000 :
#685
b10110 "
b0 :
#686
b11000 "
b1 :
#687
b11010 "
b10 :
#688
b11100 "
b11 :
#689
b11110 "
b100 :
#690
b100000 "
b101 :
#691
b0 "
b110 :
#692
b10 "
b111 :
#693
b100 "
b1000 :
#694
b110 "
b1001 :
#695
b1000 "
b1010 :
#696
b1010 "
b1011 :
#697
b1100 "
b1100 :
#698
b1110 "
b1101 :
#699
b10000 "
b1110 :
#700
b10010 "
b1111 :
#701
b10100 "
b10000 :
#702
b10110 "
b0 :
#703
b11000 "
b1 :
#704
b11010 "
b10 :
#705
b11100 "
b11 :
#706
b11110 "
b100 :
#707
b100000 "
b101 :
#708
b0 "
b110 :
#709
b10 "
b111 :
#710
b100 "
b1000 :
#711
b110 "
b1001 :
#712
b1000 "
b1010 :
#713
b1010 "
b1011 :
#714
b1100 "
b1100 :
#715
b1110 "
b1101 :
#716
b10000 "
b1110 :
#717
b10010 "
b1111 :
#718
b10100 "
b10000 :
#719
b10110 "
b0 :
#720
b11000 "
b1 :
#721
b11010 "
b10 :
#722
b11100 "
b11 :
#723
b11110 "
b100 :
#724
b100000 "
b101 :
#725
b0 "
b110 :
#726
b10 "
b111 :
#727
b100 "
b1000 :
#728
b110 "
b1001 :
#729
b1000 "
b1010 :
#730
b1010 "
b1011 :
#731
b1100 "
b1100 :
#732
b1110 "
b1101 :
#733
b10000 "
b1110 :
#734
b10010 "
b1111 :
#735
b10100 "
b10000 :
#736
b10110 "
b0 :
#737
b1111011111110111 "
05
b1111011111110111 :
0J
#744
b11000 "
15
b1 :
1J
#745
b11010 "
b10 :
#746
b11100 "
b11 :
#747
b11110 "
b100 :
#748
b100000 "
b101 :
#749
b0 "
b110 :
#750
b10 "
b111 :
#751
b100 "
b1000 :
#752
b110 "
b1001 :
#753
b1000 "
b1010 :
#754
b1010 "
b1011 :
#755
b1100 "
b1100 :
#756
b1110 "
b1101 :
#757
b10000 "
b1110 :
#758
b10010 "
b1111 :
#759
b10100 "
b10000 :
#760
b10110 "
b0 :
#761
b11000 "
b1 :
#762
b11010 "
b10 :
#763
b11100 "
b11 :
#764
b11110 "
b100 :
#765
b100000 "
b101 :
#766
b0 "
b110 :
#767
b10 "
b111 :
#768
b100 "
b1000 :
#769
b110 "
b1001 :
#770
b1000 "
b1010 :
#771
b1010 "
b1011 :
#772
b1100 "
b1100 :
#773
b1110 "
b1101 :
#774
b10000 "
b1110 :
#775
b10010 "
b1111 :
#776
b10100 "
b10000 :
#777
b10110 "
b0 :
#778
b11000 "
b1 :
#779
b11010 "
b10 :
#780
b11100 "
b11 :
#781
b11110 "
b100 :
#782
b100000 "
b101 :
#783
b0 "
b110 :
#784
b10 "
b111 :
#785
b100 "
b1000 :
#786
b110 "
b1001 :
#787
b1000 "
b1010 :
#788
b1010 "
b1011 :
#789
b1100 "
b1100 :
#790
b1110 "
b1101 :
#791
b10000 "
b1110 :
#792
b10010 "
b1111 :
#793
b10100 "
b10000 :
#794
b10110 "
b0 :
#795
b11000 "
b1 :
#796
b11010 "
b10 :
#797
b11100 "
b11 :
#798
b11110 "
b100 :
#799
b100000 "
b101 :
#800
b0 "
b110 :
#801
b10 "
b111 :
#802
b100 "
b1000 :
#803
b110 "
b1001 :
#804
b1000 "
b1010 :
#805
b1010 "
b1011 :
#806
b1100 "
b1100 :
#807
b1110 "
b1101 :
#808
b10000 "
b1110 :
#809
b10010 "
b1111 :
#810
b10100 "
b10000 :
#811
b10110 "
b0 :
#812
b11000 "
b1 :
#813
b11010 "
b10 :
#814
b11100 "
b11 :
#815
b11110 "
b100 :
#816
b100000 "
b101 :
#817
b0 "
b110 :
#818
b10 "
b111 :
#819
b100 "
b1000 :
#820
b110 "
b1001 :
#821
b1000 "
b1010 :
#822
b1010 "
b1011 :
#823
b1100 "
b1100 :
#824
b1110 "
b1101 :
#825
b10000 "
b1110 :
#826
b10010 "
b1111 :
#827
b10100 "
b10000 :
#828
b10110 "
b0 :
#829
b11000 "
b1 :
#830
b11010 "
b10 :
#831
b11100 "
b11 :
#832
b11110 "
b100 :
#833
b100000 "
b101 :
#834
b0 "
b110 :
#835
b10 "
b111 :
#836
b100 "
b1000 :
#837
b110 "
b1001 :
#838
b1000 "
b1010 :
#839
b1010 "
b1011 :
#840
b1100 "
b1100 :
#841
b1110 "
b1101 :
#842
b10000 "
b1110 :
#843
b10010 "
b1111 :
#844
b10100 "
b10000 :
#845
b10110 "
b0 :
#846
b11000 "
b1 :
#847
b11010 "
b10 :
#848
b11100 "
b11 :
#849
b11110 "
b100 :
#850
b100000 "
b101 :
#851
b0 "
b110 :
#852
b10 "
b111 :
#853
b100 "
b1000 :
#854
b110 "
b1001 :
#855
b1000 "
b1010 :
#856
b1010 "
b1011 :
#857
b1100 "
b1100 :
#858
b1110 "
b1101 :
#859
b10000 "
b1110 :
#860
b10010 "
b1111 :
#861
b10100 "
b10000 :
#862
b10110 "
b0 :
#863
b11000 "
b1 :
#864
b11010 "
b10 :
#865
b11100 "
b11 :
#866
b11110 "
b100 :
#867
b100000 "
b101 :
#868
b0 "
b110 :
#869
b10 "
b111 :
#870
b100 "
b1000 :
#871
b110 "
b1001 :
#872
b1000 "
b1010 :
#873
b1010 "
b1011 :
#874
b1100 "
b1100 :
#875
b1110 "
b1101 :
#876
b10000 "
b1110 :
#877
b10010 "
b1111 :
#878
b10100 "
b10000 :
#879
b10110 "
b0 :
#880
b11000 "
b1 :
#881
b11010 "
b10 :
#882
b11100 "
b11 :
#883
b11110 "
b100 :
#884
b100000 "
b101 :
#885
b0 "
b110 :
#886
b10 "
b111 :
#887
b100 "
b1000 :
#888
b110 "
b1001 :
#889
b1000 "
b1010 :
#890
b1010 "
b1011 :
#891
b1100 "
b1100 :
#892
b1110 "
b1101 :
#893
b10000 "
b1110 :
#894
b10010 "
b1111 :
#895
b10100 "
b10000 :
#896
b10110 "
b0 :
#897
b11000 "
b1 :
#898
b11010 "
b10 :
#899
b11100 "
b11 :
#900
b11110 "
b100 :
#901
b100000 "
b101 :
#902
b0 "
b110 :
#903
b10 "
b111 :
#904
b100 "
b1000 :
#905
b110 "
b1001 :
#906
b1000 "
b1010 :
#907
b1010 "
b1011 :
#908
b1100 "
b1100 :
#909
b1110 "
b1101 :
#910
b10000 "
b1110 :
#911
b10010 "
b1111 :
#912
b10100 "
b10000 :
#913
b10110 "
b0 :
#914
b11000 "
b1 :
#915
b11010 "
b10 :
#916
b11100 "
b11 :
#917
b11110 "
b100 :
#918
b100000 "
b101 :
#919
b0 "
b110 :
#920
b10 "
b111 :
#921
b100 "
b1000 :
#922
b110 "
b1001 :
#923
b1000 "
b1010 :
#924
b1010 "
b1011 :
#925
b1100 "
b1100 :
#926
b1110 "
b1101 :
#927
b10000 "
b1110 :
#928
b10010 "
b1111 :
#929
b10100 "
b10000 :
#930
b10110 "
b0 :
#931
b11000 "
b1 :
#932
b11010 "
b10 :
#933
b11100 "
b11 :
#934
b11110 "
b100 :
#935
b100000 "
b101 :
#936
b0 "
b110 :
#937
b10 "
b111 :
#938
b100 "
b1000 :
#939
b110 "
b1001 :
#940
b1000 "
b1010 :
#941
b1010 "
b1011 :
#942
b1100 "
b1100 :
#943
b1110 "
b1101 :
#944
b10000 "
b1110 :
#945
b10010 "
b1111 :
#946
b10100 "
b10000 :
#947
b10110 "
b0 :
#948
b11000 "
b1 :
#949
b11010 "
b10 :
#950
b11100 "
b11 :
#951
b11110 "
b100 :
#952
b100000 "
b101 :
#953
b0 "
b110 :
#954
b10 "
b111 :
#955
b100 "
b1000 :
#956
b110 "
b1001 :
#957
b1000 "
b1010 :
#958
b1010 "
b1011 :
#959
b1100 "
b1100 :
#960
b1110 "
b1101 :
#961
b10000 "
b1110 :
#962
b10010 "
b1111 :
#963
b10100 "
b10000 :
#964
b10110 "
b0 :
#965
b11000 "
b1 :
#966
b11010 "
b10 :
#967
b11100 "
b11 :
#968
b11110 "
b100 :
#969
b100000 "
b101 :
#970
b0 "
b110 :
#971
b10 "
b111 :
#972
b100 "
b1000 :
#973
b110 "
b1001 :
#974
b1000 "
b1010 :
#975
b1010 "
b1011 :
#976
b1100 "
b1100 :
#977
b1110 "
b1101 :
#978
b10000 "
b1110 :
#979
b10010 "
b1111 :
#980
b10100 "
b10000 :
#981
b10110 "
b0 :
#982
b11000 "
b1 :
#983
b11010 "
b10 :
#984
b11100 "
b11 :
#985
b11110 "
b100 :
#986
b100000 "
b101 :
#987
b0 "
b110 :
#988
b10 "
b111 :
#989
b100 "
b1000 :
#990
b110 "
b1001 :
#991
b1000 "
b1010 :
#992
b1010 "
b1011 :
#993
b1100 "
b1100 :
#994
b1110 "
b1101 :
#995
b10000 "
b1110 :
#996
b10010 "
b1111 :
#997
b10100 "
b10000 :
#998
b10110 "
b0 :
#999
b11000 "
b1 :
#1000
b11010 "
b10 :
#1001
b11100 "
b11 :
#1002
b11110 "
b100 :
