vivado/.Xil/Vivado-31804-DESKTOP-CDN1SDU/hw_ila_data_1/zip_work/waveform.vcd
$date
        2019-Dec-23 17:00:41
$end
$version
        Vivado v2018.2 (64-bit)
$end
$timescale
        1ps
$end
$scope module dut $end
$var reg 16 " zusys_i/system_ila_0/U0/probe0_1 [0:15] $end
$var reg 1 2 _TRIGGER $end
$var reg 1 3 _WINDOW $end
$var reg 1 4 _GAP $end
$upscope $end
$enddefinitions $end
#0
$dumpvars
b100001101001 "
02
13
04
$end
#1
b1000100000000 "
#2
b111010000010010 "
#3
b100000000100 "
#4
b10000000001000 "
#5
b100000000100 "
#6
b10111001000 "
#7
b10000010010000 "
#8
b100000100010 "
#9
b1110011010001010 "
#10
b10010001110010 "
#11
b10111100001100 "
#12
b1100101101010 "
#13
b110011011010011 "
#14
b110110001011010 "
#15
b111001000000100 "
#16
b101001110001100 "
#17
b1110010000100010 "
#18
b1000101011111011 "
#19
b1001011110001111 "
#20
b1111000100010000 "
#21
b11010010100000 "
#22
b10011000010010 "
#23
b110010001100 "
#24
b11000110000010 "
#25
b10010010000110 "
#26
b1110100111011 "
#27
b100010011000010 "
#28
b1000100000100010 "
#29
b10101001000 "
#30
b110000000000001 "
#31
b1000000000101000 "
#32
b1000100000101000 "
#33
b10010011111101 "
#34
b1000000110000 "
#35
b10 "
#36
b10000000001100 "
#37
b100001000010 "
#38
b10010000000000 "
#39
b10100010010 "
#40
b1110101010000010 "
#41
b11001010100000 "
#42
b1000111001000 "
#43
b1000100001000100 "
#44
b1111010101111000 "
#45
b101100100100010 "
#46
b1101101010010 "
#47
b11001100100011 "
#48
b111010010011010 "
#49
b1000000100110111 "
#50
b10111100110111 "
#51
b110010001110 "
#52
b1001111001000 "
#53
b1111001011011000 "
#54
b1000100000010010 "
#55
b10000010000010 "
#56
b1001100000000000 "
#57
b1000010000000010 "
#58
b1010000010000010 "
#59
b1001000000 "
#60
b1000100001000 "
#61
b1000000010010 "
#62
b1001100000100 "
#63
b1001000000 "
#64
b1000110001000010 "
#65
b1001000 "
#66
b0 "
#67
b10001010000110 "
#68
b10001000001000 "
#69
b100100100100 "
#70
b100001000 "
#71
b10010000001100 "
#72
b10001000100010 "
#73
b100100000110 "
#74
b10010000100010 "
#75
b1110011101010001 "
#76
b110000011100110 "
#77
b1000000100010011 "
#78
b1101000000101100 "
#79
b1001110001110000 "
#80
b1110100011100000 "
#81
b11110110011000 "
#82
b110010010010 "
#83
b101000100 "
#84
b1000110000010000 "
#85
b1000000101100010 "
#86
b111001000011000 "
#87
b1011000000101001 "
#88
b1101010110101000 "
#89
b10011010011110 "
#90
b11110010110000 "
#91
b1010000011111000 "
#92
b10000010000 "
#93
b11100010010 "
#94
b10100000110000 "
#95
b10000000000010 "
#96
b100000000011000 "
#97
b11000001000001 "
#98
b1001100000000 "
#99
b11001000000 "
#100
b10001000100000 "
#101
b1010000010000010 "
#102
b10000000001000 "
#103
b100000100001100 "
#104
b111110101001000 "
#105
b110000000 "
#106
b10100000100 "
#107
b10000001000010 "
#108
b101000000 "
#109
b110010010 "
#110
b1000000 "
#111
b10010110000000 "
#112
b10000010010000 "
#113
b1000000000000000 "
#114
b10100010100000 "
#115
b100000001000 "
#116
b1000100001110 "
#117
b10010000010000 "
#118
b110110010000000 "
#119
b11000000111101 "
#120
b110110000000010 "
#121
b100010001000111 "
#122
b1000100011110010 "
#123
b10000010001100 "
#124
b1111101100100000 "
#125
b11101101000001 "
#126
b1001110101001100 "
#127
b110101101111010 "
#128
b1100110100101000 "
#129
b10000101000110 "
#130
b10000000110 "
#131
b10000100000100 "
#132
b100000000001000 "
#133
b1000001000100 "
#134
b100000100 "
#135
b10000000001 "
#136
b100010000011100 "
#137
b10000000000 "
#138
b1010000010001 "
#139
b1001000100000100 "
#140
b10010001000000 "
#141
b1000100000001 "
#142
b101000010000000 "
#143
b111010001001000 "
#144
b111110001100001 "
#145
b110000100000011 "
#146
b1000010001111001 "
#147
b111110110011000 "
#148
b111001010110110 "
#149
b1000111101000100 "
#150
b1000100110011 "
#151
b11110001000101 "
#152
b101010101000110 "
#153
b111100010011100 "
#154
b111011011000100 "
#155
b1101100010110100 "
#156
b110010010000010 "
#157
b1011110001000101 "
#158
b11100000011100 "
#159
b1000101000101 "
#160
b11100000100011 "
#161
b1101110000010001 "
#162
b1001000100000100 "
#163
b100110000000000 "
#164
b1000011000000 "
#165
b10000000010 "
#166
b11101100000000 "
#167
b1000010101000100 "
#168
b110111100011000 "
#169
b1001000001000100 "
#170
b10111101110 "
#171
b100000 "
#172
b10000000100 "
#173
b11010000010010 "
#174
b1011100001110001 "
#175
b1100111101100101 "
#176
b111110011000111 "
#177
b1000100110111001 "
#178
b1001110010010011 "
#179
b11010010101000 "
#180
b1000010100000101 "
#181
b1100010000010000 "
#182
b1001011011100000 "
#183
b110111101000100 "
#184
b1011110010100001 "
#185
b1110011010100001 "
#186
b1001110000011000 "
#187
b10000100010001 "
#188
b1000000 "
#189
b11000001000100 "
#190
b1000000000010001 "
#191
b101000100010000 "
#192
b101000000000100 "
#193
b1000001 "
#194
b10000001000100 "
#195
b1000000000001 "
#196
b101000001000000 "
#197
b1000100000100 "
#198
b10000010000 "
#199
b10010001000101 "
#200
b10000010010001 "
#201
b1001000111000000 "
#202
b10010101000100 "
#203
b1111000100010000 "
#204
b10100010100 "
#205
b1111110011010100 "
#206
b11100000010000 "
#207
b110110010010011 "
#208
b10100101111 "
#209
b1101101100111101 "
#210
b1101001010100110 "
#211
b1000111100001100 "
#212
b110010100111000 "
#213
b110111101100011 "
#214
b1110000010000010 "
#215
b1101000100100110 "
#216
b1000101101110 "
#217
b11010010111000 "
#218
b1001001000110000 "
#219
b10010000010010 "
#220
b100000100000 "
#221
b101000000 "
#222
b10000000000100 "
#223
b100000010011001 "
#224
b100000000000 "
#225
b11101100010000 "
#226
b100000100 "
#227
b100001001000000 "
#228
b110001100100010 "
#229
b10110011010011 "
#230
b111010000000001 "
#231
b10010100101110 "
#232
b10000111001000 "
#233
b1000011011001 "
#234
b101001101000100 "
#235
b10100100010000 "
#236
b1110100011111000 "
#237
b1001001010000000 "
#238
b100000111101 "
#239
b10010000100110 "
#240
b10011011001101 "
#241
b11101011011000 "
#242
b1000100110000000 "
#243
b10000100011000 "
#244
b110011110011010 "
#245
b110111110101110 "
#246
b1100100101110 "
#247
b1011100111100110 "
#248
b100110000011000 "
#249
b1101000000 "
#250
b10000100000010 "
#251
b1001000000010010 "
#252
b1000001100000010 "
#253
b1000000010000010 "
#254
b1000010100000010 "
#255
b1000100000000010 "
#256
b10000010000110 "
#257
b1000010000010000 "
#258
b100000000000100 "
#259
b1001000000100000 "
#260
b1101000010 "
#261
b10000000011000 "
#262
b10100010000 "
#263
b100110010 "
#264
b100001000000 "
#265
b10010000010000 "
#266
b11000000 "
#267
b10100000000 "
#268
b10010001000000 "
#269
b10000001000 "
#270
b100000000010000 "
#271
b10001 "
#272
b1000010101000000 "
#273
b100100100010010 "
#274
b1011001000110000 "
#275
b11011 "
#276
b110011101111001 "
#277
b10101000101 "
#278
b1100101100000 "
#279
b100010011111000 "
#280
b1001000110101111 "
#281
b110010001101 "
#282
b11001101011100 "
#283
b100010010000000 "
#284
b11101110011000 "
#285
b1100100010001 "
#286
b11000001111001 "
#287
b1000100000000 "
#288
b111100101100000 "
#289
b1001101000010001 "
#290
b1000101000000 "
#291
b110001000000 "
#292
b10 "
#293
b100000000000000 "
#294
b110000000001 "
#295
b100000100100100 "
#296
b1110000010 "
#297
b1000110 "
#298
b10001000000 "
#299
b11000000000000 "
#300
b11001000000 "
#301
b101000000000000 "
#302
b1000000001000100 "
#303
b1000100000000 "
#304
b10110001111001 "
#305
b1001010011111 "
#306
b1001100001100011 "
#307
b110100100010100 "
#308
b1111010101000110 "
#309
b110000011011011 "
#310
b1100101101101 "
#311
b10010010010110 "
#312
b10010011011100 "
#313
b1000101001100 "
#314
b1000001000100000 "
#315
b11001100000010 "
#316
b10000000010 "
#317
b10010000001001 "
#318
b1000100110010 "
#319
b100011001100011 "
#320
b10000000001100 "
#321
b1000000100001011 "
#322
b10010000101000 "
#323
b1000001100000100 "
#324
b1100100001000010 "
#325
b110000101000 "
#326
b11100000010 "
#327
b100000000011 "
#328
b1000100011000100 "
#329
b110110011111 "
#330
b1111000010001111 "
#331
b110100010101001 "
#332
b111100010010011 "
#333
b1100100100110 "
#334
b101100110010010 "
#335
b110000010010001 "
#336
b1001010001000100 "
#337
b10000001000110 "
#338
b1000100010000 "
#339
b1100001001 "
#340
b1 "
#341
b1001000001011100 "
#342
b1000101000000 "
#343
b100100000100 "
#344
b100011101000001 "
#345
b10000101010001 "
#346
b100110010110001 "
#347
b101000010 "
#348
b10001111100 "
#349
b1011011110001100 "
#350
b1000000011001000 "
#351
b11100000000110 "
#352
b1100010011010 "
#353
b110000001110111 "
#354
b1000001110111000 "
#355
b1110110101110011 "
#356
b1000111110000 "
#357
b10110101110111 "
#358
b1110000000001 "
#359
b1011110000010010 "
#360
b100010101010001 "
#361
b1100000001000100 "
#362
b101010101001100 "
#363
b11000000010001 "
#364
b1001101010001 "
#365
b1000000010000 "
#366
b100100000100001 "
#367
b101000000 "
#368
b1000011100000100 "
#369
b10001000100 "
#370
b1000100000110 "
#371
b100001010000 "
#372
b10100010000 "
#373
b10010001000000 "
#374
b100010001000010 "
#375
b11010000000000 "
#376
b10000010000 "
#377
b101000000 "
#378
b101100000000 "
#379
b1010001000 "
#380
b110001100010000 "
#381
b1000011100000100 "
#382
b101000100 "
#383
b100000000 "
#384
b111001101111100 "
#385
b101010111011001 "
#386
b10000000101000 "
#387
b1111101111001111 "
#388
b1000110001000110 "
#389
b1010100000111101 "
#390
b10101101101 "
#391
b1001000101110010 "
#392
b100111110 "
#393
b11100011000000 "
#394
b10000000100100 "
#395
b10101010001 "
#396
b111010010111000 "
#397
b1110011011011000 "
#398
b110000011011110 "
#399
b11101110100010 "
#400
b1000011010010011 "
#401
b1100010000000 "
#402
b1001000100011000 "
#403
b1000010001 "
#404
b10000000010000 "
#405
b1000000010000 "
#406
b1100101000010 "
#407
b1000100000000100 "
#408
b10101000001 "
#409
b1000000000100 "
#410
b1000000100000101 "
#411
b100110000010 "
#412
b111100001100100 "
#413
b1011110011010010 "
#414
b1011101110001000 "
#415
b111110000100100 "
#416
b110001111010 "
#417
b1100100010000100 "
#418
b10100001011001 "
#419
b1110111100011100 "
#420
b100000101010100 "
#421
b1010011110010000 "
#422
b1001110010110011 "
#423
b1001101000101 "
#424
b1000001 "
#425
b1010101000001 "
#426
b100000011 "
#427
b10100001 "
#428
b10000010000 "
#429
b100100111010000 "
#430
b1000100 "
#431
b1000101000001 "
#432
b11000000010100 "
#433
b10000000001 "
#434
b100010001 "
#435
b111000001000000 "
#436
b1111110001010000 "
#437
b1000000001001 "
#438
b110000100111011 "
#439
b1001100111010000 "
#440
b1110011100100100 "
#441
b100000110100101 "
#442
b111001110010100 "
#443
b1000000001000010 "
#444
b110001110000 "
#445
b1111000101000010 "
#446
b1001001101001001 "
#447
b110000010011111 "
#448
b10001000100000 "
#449
b10011101100000 "
#450
b1110011110010000 "
#451
b1001010010011001 "
#452
b100001010010010 "
#453
b100000000000 "
#454
b110000010 "
#455
b10000000010000 "
#456
b100000 "
#457
b10000000000 "
#458
b1100001000000100 "
#459
b1001100001100 "
#460
b11101111111110 "
#461
b1000001101101000 "
#462
b11101111001 "
#463
b1011101100011000 "
#464
b111010101101000 "
#465
b1000100100010010 "
#466
b1011101101111100 "
#467
b1000010010100000 "
#468
b100010010100100 "
#469
b1000000010110101 "
#470
b101110000111000 "
#471
b1111110011001110 "
#472
b1111000000011000 "
#473
b10000010101100 "
#474
b1111001100000001 "
#475
b1000101000010 "
#476
b1000100110000 "
#477
b100010000 "
#478
b11000000000000 "
#479
b10000000100 "
#480
b1000100010011 "
#481
b10000000000000 "
#482
b101000011 "
#483
b101000000 "
#484
b1000000001000100 "
#485
b10110 "
#486
b1100100000000000 "
#487
b1111000100000000 "
#488
b100010101000001 "
#489
b10100 "
#490
b1000011000000100 "
#491
b1001110010010011 "
#492
b1000000110000100 "
#493
b1110000101000000 "
#494
b1110010011000100 "
#495
b1000111101001100 "
#496
b1100100001010011 "
#497
b1000010000110000 "
#498
b1110110101010011 "
#499
b10010101000001 "
#500
b1001000100000100 "
#501
b10000000001000 "
#502
b100000000100000 "
#503
b10000010010001 "
#504
b10000010000100 "
#505
b10100000000 "
#506
b100001010000 "
#507
b1100000110 "
#508
b100000011110011 "
#509
b1111001000010000 "
#510
b1000000000000010 "
#511
b100100000000010 "
#512
b1100000000100 "
12
#513
b1000101101100000 "
#514
b1101111001001000 "
#515
b101011000110 "
#516
b110000110010000 "
#517
b11101100100110 "
#518
b1111011111001000 "
#519
b11001101110001 "
#520
b1001110000101100 "
#521
b1000000010001 "
#522
b11110010111000 "
#523
b10001000001 "
#524
b101000101000000 "
#525
b100000110000001 "
#526
b10000000010 "
#527
b10000 "
#528
b10010110011 "
#529
b1001111000001 "
#530
b10011001 "
#531
b1000101010100 "
#532
b11000000000011 "
#533
b100010000 "
#534
b1000000000000 "
#535
b1000100000100 "
#536
b1000001000010000 "
#537
b10000001000110 "
#538
b11001101001100 "
#539
b11001101100001 "
#540
b101100010011000 "
#541
b110111101011100 "
#542
b1010000000011000 "
#543
b10101011010000 "
#544
b110000000110011 "
#545
b10011010010000 "
#546
b110011101001100 "
#547
b100010000000110 "
#548
b110000000001000 "
#549
b10000010000000 "
#550
b100100000000010 "
#551
b101000000 "
#552
b10000000001000 "
#553
b110010000000100 "
#554
b10001001000 "
#555
b0 "
#556
b1000100000000 "
#557
b100000000100000 "
#558
b1000000000 "
#559
b1000010100000000 "
#560
b1110110011000010 "
#561
b1100000000010000 "
#562
b100110001111000 "
#563
b110011000000 "
#564
b1110011110001100 "
#565
b1100100010011011 "
#566
b1100100000110111 "
#567
b1110011001001100 "
#568
b10000001000001 "
#569
b100010010 "
#570
b100000000000010 "
#571
b1000001000000001 "
#572
b100000001000 "
#573
b11000000000000 "
#574
b101000000 "
#575
b100110000010 "
#576
b1100001000001 "
#577
b1000100000000 "
#578
b10000110000 "
#579
b100001000 "
#580
b1000110000000010 "
#581
b111000001000000 "
#582
b1000011001000010 "
#583
b11000000001 "
#584
b1001010000000 "
#585
b1000000111101 "
#586
b11000000000010 "
#587
b10010 "
#588
b11000000000100 "
#589
b110001000100 "
#590
b1001000110011010 "
#591
b111001011100111 "
#592
b1111001110100010 "
#593
b1000110100111011 "
#594
b1000100101000100 "
#595
b10101001100 "
#596
b1001100000001000 "
#597
b10101100010 "
#598
b1100001010001111 "
#599
b110000011000100 "
#600
b1010001101111000 "
#601
b11111010010100 "
#602
b1011100101100010 "
#603
b1001100100 "
#604
b1000000000000100 "
#605
b1101000000 "
#606
b100 "
#607
b1000001000000000 "
#608
b1101000010 "
#609
b1000000 "
#610
b100111000000 "
#611
b1000101000000000 "
#612
b100000100000 "
#613
b0 "
#614
b10000000010010 "
#615
b1000011100000001 "
#616
b1000 "
#617
b1000000010001000 "
#618
b100000001 "
#619
b10000000000010 "
#620
b1001000101000000 "
#621
b1101001011011000 "
#622
b100100011011111 "
#623
b11110011110000 "
#624
b10010100110000 "
#625
b1001100101 "
#626
b1110000101000010 "
#627
b1000011010010010 "
#628
b1111011011010000 "
#629
b10010011011000 "
#630
b11101100001100 "
#631
b10010001100000 "
#632
b101110010111000 "
#633
b101100010111111 "
#634
b1000001011001000 "
#635
b1111000 "
#636
b1000101100000 "
#637
b1000100000000110 "
#638
b10101100011 "
#639
b10000011000100 "
#640
b100001000001001 "
#641
b101001000 "
#642
b10010000000000 "
#643
b1000100010100000 "
#644
b101011100000010 "
#645
b110111011111011 "
#646
b1111011100010011 "
#647
b11000010011001 "
#648
b10000110000100 "
#649
b111101101011101 "
#650
b1001110011101110 "
#651
b111100111000010 "
#652
b1110110010011000 "
#653
b1101101111000 "
#654
b100010010011000 "
#655
b1110000001110000 "
#656
b1110010101110000 "
#657
b1000000110010010 "
#658
b11111111110010 "
#659
b111001100001001 "
#660
b11101100000011 "
#661
b10010101100110 "
#662
b111100000111011 "
#663
b110100111100101 "
#664
b1000000110111000 "
#665
b110110001111000 "
#666
b11110001101110 "
#667
b1100010010011011 "
#668
b1100001011010110 "
#669
b10010100001011 "
#670
b1100100000000011 "
#671
b101100111101111 "
#672
b111000110000110 "
#673
b10100010001110 "
#674
b110100011001110 "
#675
b1111000010 "
#676
b11001100111011 "
#677
b100000011000 "
#678
b10100011100 "
#679
b1011010101100000 "
#680
b1110101001001111 "
#681
b1110011010011000 "
#682
b100010011110111 "
#683
b10100000100000 "
#684
b110000010 "
#685
b1010001000000010 "
#686
b10000010100000 "
#687
b1000000100001010 "
#688
b1010001000 "
#689
b1010000010001000 "
#690
b1000100010 "
#691
b10010000000000 "
#692
b11000000000 "
#693
b10011000010000 "
#694
b1000100000000000 "
#695
b11100110 "
#696
b10000010001000 "
#697
b1100111100111100 "
#698
b1000001100011010 "
#699
b10001000000111 "
#700
b1010000010000010 "
#701
b10000001100110 "
#702
b1000110011000 "
#703
b10100010000010 "
#704
b1100100001100110 "
#705
b111011001000010 "
#706
b1110011000000010 "
#707
b1001101111000 "
#708
b1111100100011000 "
#709
b10100010001110 "
#710
b1000100010000 "
#711
b10000010010010 "
#712
b10000 "
#713
b101100000010010 "
#714
b110000000001000 "
#715
b1000100000100 "
#716
b10001000000000 "
#717
b1000000000 "
#718
b10000010000 "
#719
b10000001 "
#720
b1000010000000010 "
#721
b1000000000000010 "
#722
b10000000100000 "
#723
b101001000 "
#724
b10000000001001 "
#725
b11110001000000 "
#726
b10000101000110 "
#727
b1000100010000100 "
#728
b1001011011000 "
#729
b10100010011100 "
#730
b1000010010010101 "
#731
b111110000010010 "
#732
b1000101010000 "
#733
b11001010110 "
#734
b1001100000010001 "
#735
b11000001001000 "
#736
b1000100001100001 "
#737
b1100001010000 "
#738
b1000011101000001 "
#739
b1000111111001 "
#740
b1000000101111000 "
#741
b11100000110 "
#742
b110000001000100 "
#743
b11101000110 "
#744
b1001100101100000 "
#745
b1000000111000001 "
#746
b100010000 "
#747
b1111100011011101 "
#748
b1001011101000100 "
#749
b1000110000100000 "
#750
b1000000100100 "
#751
b11011110111111 "
#752
b110001000000 "
#753
b1111000000000010 "
#754
b111100100100010 "
#755
b1000000111011001 "
#756
b110101111101 "
#757
b10010011110011 "
#758
b1100100011010000 "
#759
b101010100110010 "
#760
b1000110010010001 "
#761
b10100000000011 "
#762
b10000001100 "
#763
b1100100010001000 "
#764
b1100101010000 "
#765
b1101000101000100 "
#766
b10010111001 "
#767
b1101100000010010 "
#768
b1101100001111000 "
#769
b10001100100100 "
#770
b10010001001000 "
#771
b1000001100000010 "
#772
b1000 "
#773
b11001000000 "
#774
b1000100000001 "
#775
b11000001000100 "
#776
b1000000100000100 "
#777
b1011111001000100 "
#778
b1000100000000010 "
#779
b1000000101100100 "
#780
b1000000000100 "
#781
b11000000100000 "
#782
b100111111110001 "
#783
b1010001000001 "
#784
b1001010101000100 "
#785
b110000010000 "
#786
b1100000000111011 "
#787
b10101000001 "
#788
b110000000000000 "
#789
b11000000000110 "
#790
b1100110010010 "
#791
b10001100011000 "
#792
b1000010101000000 "
#793
b1011000000001100 "
#794
b10000000100011 "
#795
b100110001110010 "
#796
b1100000110000100 "
#797
b10000000001 "
#798
b110000000010000 "
#799
b10000000000 "
#800
b1000100010000 "
#801
b111000101010001 "
#802
b1000000100011000 "
#803
b11000010 "
#804
b10000000000 "
#805
b10 "
#806
b100000000000010 "
#807
b110100001100 "
#808
b1000000000010010 "
#809
b1000110000000100 "
#810
b100110101100000 "
#811
b110010000000110 "
#812
b10100001100110 "
#813
b1001001000010010 "
#814
b10010011101100 "
#815
b1111010001100110 "
#816
b10100001111001 "
#817
b1101000110 "
#818
b110000100010010 "
#819
b1001000101110011 "
#820
b10111101110001 "
#821
b10010010010011 "
#822
b100001101100000 "
#823
b10000111000010 "
#824
b1100010010000100 "
#825
b100010101000100 "
#826
b11000000010 "
#827
b100000100000000 "
#828
b10000100001010 "
#829
b1111000100000000 "
#830
b100000001 "
#831
b100000000 "
#832
b1001100000110 "
#833
b10101000100 "
#834
b10000110010011 "
#835
b100 "
#836
b10000000010 "
#837
b100110000110000 "
#838
b10000100000001 "
#839
b10010001000100 "
#840
b100010000000001 "
#841
b10001000100000 "
#842
b10010010000010 "
#843
b10111101000101 "
#844
b111010011000100 "
#845
b1001100111111100 "
#846
b110011011010000 "
#847
b110011010000 "
#848
b100010001000010 "
#849
b110110001100110 "
#850
b100000111101 "
#851
b111110000011000 "
#852
b11101110111000 "
#853
b10010101000000 "
#854
b1101110101010010 "
#855
b10001001111000 "
#856
b10111101001100 "
#857
b10000000000 "
#858
b101000010 "
#859
b10000000000 "
#860
b1000010 "
#861
b100000000 "
#862
b11101100000110 "
#863
b100000000000000 "
#864
b1000000 "
#865
b0 "
#866
b100010000 "
#867
b100000000010000 "
#868
b100000000000000 "
#869
b100010010 "
#870
b100000000 "
#871
b1111001101000001 "
#872
b100000001000000 "
#873
b1000000000100 "
#874
b1001001101000011 "
#875
b111000000000110 "
#876
b1000010101100101 "
#877
b110010101000000 "
#878
b11001001100010 "
#879
b1000101011001 "
#880
b11110111101011 "
#881
b1101100011110001 "
#882
b100101011011 "
#883
b1010000111010000 "
#884
b10000010000 "
#885
b11000000010000 "
#886
b1000001000000 "
#887
b100000100000000 "
#888
b1 "
#889
b100010010 "
#890
b0 "
#891
b1000000000000010 "
#892
b100000000 "
#893
b110000000001100 "
#894
b101001000 "
#895
b100000010010010 "
#896
b1000100000100 "
#897
b1000000110110000 "
#898
b10000000010010 "
#899
b11000000100001 "
#900
b10000 "
#901
b100000000000000 "
#902
b1000010000000001 "
#903
b1 "
#904
b1101100000000010 "
#905
b10000111110011 "
#906
b10010000000000 "
#907
b10010011001 "
#908
b10100101010001 "
#909
b11010000001000 "
#910
b1000001001000011 "
#911
b110011101011010 "
#912
b101011110100111 "
#913
b100010100111011 "
#914
b1011000000100100 "
#915
b10000101001100 "
#916
b1110011010111101 "
#917
b1000011101111000 "
#918
b101101001111100 "
#919
b101100110000 "
#920
b1111010110100110 "
#921
b1100010010111001 "
#922
b1001001011011011 "
#923
b1001000100000010 "
#924
b111111111100110 "
#925
b1100011000 "
#926
b10000010000000 "
#927
b10000000000000 "
#928
b1001000 "
#929
b10000100001000 "
#930
b10000000000 "
#931
b100000010010 "
#932
b1000100000000100 "
#933
b1000010010000 "
#934
b10000001000001 "
#935
b1000000100000001 "
#936
b1000010 "
#937
b100000010000 "
#938
b10000010000 "
#939
b11000001000000 "
#940
b10000 "
#941
b10000000100 "
#942
b100000 "
#943
b1000001100000100 "
#944
b1001100101001000 "
#945
b1001000101000110 "
#946
b110110000000011 "
#947
b1110011100001000 "
#948
b100011101011000 "
#949
b110011000001100 "
#950
b110000000001 "
#951
b110 "
#952
b1100 "
#953
b10101001100 "
#954
b100001000010010 "
#955
b100100100000 "
#956
b1000101000000 "
#957
b1010000000000 "
#958
b1000000101000000 "
#959
b1010000000000000 "
#960
b1000100 "
#961
b1001101000100 "
#962
b10000000000100 "
#963
b10001000001 "
#964
b1000110000000110 "
#965
b100100000 "
#966
b10000000001 "
#967
b100000010000 "
#968
b10000000000 "
#969
b110010001000000 "
#970
b110110010000001 "
#971
b1000110010000 "
#972
b10000001001001 "
#973
b111010010010000 "
#974
b101110010010011 "
#975
b11110001000100 "
#976
b1001011101000100 "
#977
b11000000100000 "
#978
b10000010011000 "
#979
b1000000110000000 "
#980
b100010000000000 "
#981
b1000000100000010 "
#982
b10 "
#983
b111110001000001 "
#984
b1000101100001 "
#985
b11101100010000 "
#986
b1100010000 "
#987
b1000000000010010 "
#988
b10001000001100 "
#989
b1000010001111000 "
#990
b1100000000000000 "
#991
b0 "
#992
b100000000010 "
#993
b10001001000100 "
#994
b111011101100001 "
#995
b110000100011011 "
#996
b11100001000100 "
#997
b1001100101101110 "
#998
b11110000000100 "
#999
b100001101101111 "
#1000
b111000110010010 "
#1001
b110110011110011 "
#1002
b1000011110010011 "
#1003
b110010001110101 "
#1004
b1111011101101100 "
#1005
b1101110011001000 "
#1006
b1111100011110010 "
#1007
b10110010001 "
#1008
b1100011000000000 "
#1009
b1000101010001011 "
#1010
b1000001000 "
#1011
b1110011011000100 "
#1012
b100111101000010 "
#1013
b1110001100000000 "
#1014
b10000000100000 "
#1015
b1000 "
#1016
b100011000 "
#1017
b110000101000010 "
#1018
b10000000000000 "
#1019
b10000110 "
#1020
b111001000110010 "
#1021
b11000000001000 "
#1022
b101010110001001 "
#1023
b10110010100110 "
